{"total_results": 249418, "total_pages": 12471, "page": 1, "results": [{"poster_path": "/jjBgi2r5cRt36xF6iNUEhzscEcb.jpg", "title": "Jurassic World", "overview": "Twenty-two years after the events of Jurassic Park, Isla Nublar now features a fully functioning dinosaur theme park, Jurassic World, as originally envisioned by John Hammond.", "release_date": "2015-06-12", "popularity": 59.537319, "original_title": "Jurassic World", "backdrop_path": "/dkMD5qlogeRMiEixC4YNPUvax2T.jpg", "vote_count": 2900, "video": false, "adult": false, "vote_average": 6.9, "genre_ids": [28, 12, 878, 53], "id": 135397, "original_language": "en"}, {"poster_path": "/7SGGUiTE6oc2fh9MjIk5M00dsQd.jpg", "title": "Ant-Man", "overview": "Armed with the astonishing ability to shrink in scale but increase in strength, con-man Scott Lang must embrace his inner-hero and help his mentor, Dr. Hank Pym, protect the secret behind his spectacular Ant-Man suit from a new generation of towering threats. Against seemingly insurmountable obstacles, Pym and Lang must plan and pull off a heist that will save the world.", "release_date": "2015-07-17", "popularity": 21.920527, "original_title": "Ant-Man", "backdrop_path": "/kvXLZqY0Ngl1XSw7EaMQO0C1CCj.jpg", "vote_count": 1443, "video": false, "adult": false, "vote_average": 7.0, "genre_ids": [28, 12, 878], "id": 102899, "original_language": "en"}, {"poster_path": "/5aGhaIHYuQbqlHWvWYqMCnj40y2.jpg", "title": "The Martian", "overview": "During a manned mission to Mars, Astronaut Mark Watney is presumed dead after a fierce storm and left behind by his crew. But Watney has survived and finds himself stranded and alone on the hostile planet. With only meager supplies, he must draw upon his ingenuity, wit and spirit to subsist and find a way to signal to Earth that he is alive.", "release_date": "2015-10-02", "popularity": 35.679011, "original_title": "The Martian", "backdrop_path": "/sEgULSEnywgdSesVHFHpPAbOijl.jpg", "vote_count": 907, "video": false, "adult": false, "vote_average": 7.7, "genre_ids": [18, 12, 878], "id": 286217, "original_language": "en"}, {"poster_path": "/q0R4crx2SehcEEQEkYObktdeFy.jpg", "title": "Minions", "overview": "Minions Stuart, Kevin and Bob are recruited by Scarlet Overkill, a super-villain who, alongside her inventor husband Herb, hatches a plot to take over the world.", "release_date": "2015-07-10", "popularity": 33.51981, "original_title": "Minions", "backdrop_path": "/hQWYnnyHl3yEFp3jZrWoXfoXuQD.jpg", "vote_count": 1635, "video": false, "adult": false, "vote_average": 6.8, "genre_ids": [10751, 16, 12, 35], "id": 211672, "original_language": "en"}, {"poster_path": "/5JU9ytZJyR3zmClGmVm9q4Geqbd.jpg", "title": "Terminator Genisys", "overview": "The year is 2029. John Connor, leader of the resistance continues the war against the machines. At the Los Angeles offensive, John's fears of the unknown future begin to emerge when TECOM spies reveal a new plot by SkyNet that will attack him from both fronts; past and future, and will ultimately change warfare forever.", "release_date": "2015-07-01", "popularity": 26.165626, "original_title": "Terminator Genisys", "backdrop_path": "/bIlYH4l2AyYvEysmS2AOfjO7Dn8.jpg", "vote_count": 1272, "video": false, "adult": false, "vote_average": 6.2, "genre_ids": [878, 28, 53, 12], "id": 87101, "original_language": "en"}, {"poster_path": "/1n9D32o30XOHMdMWuIT4AaA5ruI.jpg", "title": "Spectre", "overview": "A cryptic message from Bond\u2019s past sends him on a trail to uncover a sinister organization. While M battles political forces to keep the secret service alive, Bond peels back the layers of deceit to reveal the terrible truth behind SPECTRE.", "release_date": "2015-11-06", "popularity": 32.720188, "original_title": "Spectre", "backdrop_path": "/fa9qPNpmLtk7yC5KZj9kIxlDJvG.jpg", "vote_count": 265, "video": false, "adult": false, "vote_average": 6.5, "genre_ids": [28, 12, 80], "id": 206647, "original_language": "en"}, {"poster_path": "/aAmfIX3TT40zUHGcCKrlOZRKC7u.jpg", "title": "Inside Out", "overview": "Growing up can be a bumpy road, and it's no exception for Riley, who is uprooted from her Midwest life when her father starts a new job in San Francisco. Like all of us, Riley is guided by her emotions - Joy, Fear, Anger, Disgust and Sadness. The emotions live in Headquarters, the control center inside Riley's mind, where they help advise her through everyday life. As Riley and her emotions struggle to adjust to a new life in San Francisco, turmoil ensues in Headquarters. Although Joy, Riley's main and most important emotion, tries to keep things positive, the emotions conflict on how best to navigate a new city, house and school.", "release_date": "2015-06-19", "popularity": 22.075676, "original_title": "Inside Out", "backdrop_path": "/szytSpLAyBh3ULei3x663mAv5ZT.jpg", "vote_count": 1650, "video": false, "adult": false, "vote_average": 8.1, "genre_ids": [35, 16, 10751], "id": 150540, "original_language": "en"}, {"poster_path": "/z2sJd1OvAGZLxgjBdSnQoLCfn3M.jpg", "title": "Mission: Impossible \u2013 Rogue Nation", "overview": "Ethan and team take on their most impossible mission yet, eradicating the Syndicate - an International rogue organization as highly skilled as they are, committed to destroying the IMF.", "release_date": "2015-07-31", "popularity": 25.942746, "original_title": "Mission: Impossible \u2013 Rogue Nation", "backdrop_path": "/vZMSji6u1Kfg5TcWWi4IAzfqXfC.jpg", "vote_count": 1146, "video": false, "adult": false, "vote_average": 7.2, "genre_ids": [28, 12, 53], "id": 177677, "original_language": "en"}, {"poster_path": "/kqjL17yufvn9OVLyXYpvtyrFfak.jpg", "title": "Mad Max: Fury Road", "overview": "An apocalyptic story set in the furthest reaches of our planet, in a stark desert landscape where humanity is broken, and most everyone is crazed fighting for the necessities of life. Within this world exist two rebels on the run who just might be able to restore order. There's Max, a man of action and a man of few words, who seeks peace of mind following the loss of his wife and child in the aftermath of the chaos. And Furiosa, a woman of action and a woman who believes her path to survival may be achieved if she can make it across the desert back to her childhood homeland.", "release_date": "2015-05-15", "popularity": 17.949275, "original_title": "Mad Max: Fury Road", "backdrop_path": "/tbhdm8UJAb4ViCTsulYFL3lxMCd.jpg", "vote_count": 2719, "video": false, "adult": false, "vote_average": 7.6, "genre_ids": [53, 28, 12], "id": 76341, "original_language": "en"}, {"poster_path": "/69Cz9VNQZy39fUE2g0Ggth6SBTM.jpg", "title": "Tomorrowland", "overview": "Bound by a shared destiny, a bright, optimistic teen bursting with scientific curiosity and a former boy-genius inventor jaded by disillusionment embark on a danger-filled mission to unearth the secrets of an enigmatic place somewhere in time and space that exists in their collective memory as \"Tomorrowland.\"", "release_date": "2015-05-22", "popularity": 17.512789, "original_title": "Tomorrowland", "backdrop_path": "/fQbc5XuB4vWA9gnY1CmyxFaOufF.jpg", "vote_count": 889, "video": false, "adult": false, "vote_average": 6.3, "genre_ids": [14, 878, 9648, 28, 12], "id": 158852, "original_language": "en"}, {"poster_path": "/qey0tdcOp9kCDdEZuJ87yE3crSe.jpg", "title": "San Andreas", "overview": "In the aftermath of a massive earthquake in California, a rescue-chopper pilot makes a dangerous journey across the state in order to rescue his estranged daughter.", "release_date": "2015-05-29", "popularity": 20.352637, "original_title": "San Andreas", "backdrop_path": "/cUfGqafAVQkatQ7N4y08RNV3bgu.jpg", "vote_count": 1143, "video": false, "adult": false, "vote_average": 6.2, "genre_ids": [28, 18, 53], "id": 254128, "original_language": "en"}, {"poster_path": "/5ttOaThDVmTpV8iragbrhdfxEep.jpg", "title": "The Man from U.N.C.L.E.", "overview": "At the height of the Cold War, a mysterious criminal organization plans to use nuclear weapons and technology to upset the fragile balance of power between the United States and Soviet Union. CIA agent Napoleon Solo and KGB agent Illya Kuryakin are forced to put aside their hostilities and work together to stop the evildoers in their tracks. The duo's only lead is the daughter of a missing German scientist, whom they must find soon to prevent a global catastrophe.", "release_date": "2015-08-14", "popularity": 17.244995, "original_title": "The Man from U.N.C.L.E.", "backdrop_path": "/sJX97HsPAdeD5bzk9TppYFsbBUY.jpg", "vote_count": 427, "video": false, "adult": false, "vote_average": 7.0, "genre_ids": [28, 12, 35], "id": 203801, "original_language": "en"}, {"poster_path": "/nBNZadXqJSdt05SHLqgT0HuC5Gm.jpg", "title": "Interstellar", "overview": "Interstellar chronicles the adventures of a group of explorers who make use of a newly discovered wormhole to surpass the limitations on human space travel and conquer the vast distances involved in an interstellar voyage.", "release_date": "2014-11-05", "popularity": 13.495284, "original_title": "Interstellar", "backdrop_path": "/xu9zaAevzQ5nnrsXN6JcahLnG4i.jpg", "vote_count": 3605, "video": false, "adult": false, "vote_average": 8.3, "genre_ids": [18, 878], "id": 157336, "original_language": "en"}, {"poster_path": "/ktyVmIqfoaJ8w0gDSZyjhhOPpD6.jpg", "title": "Pixels", "overview": "Video game experts are recruited by the military to fight 1980s-era video game characters who've attacked New York.", "release_date": "2015-07-24", "popularity": 16.048915, "original_title": "Pixels", "backdrop_path": "/nvZVu6inpwLHKqRXZhye3S4uqei.jpg", "vote_count": 629, "video": false, "adult": false, "vote_average": 6.1, "genre_ids": [28, 35, 878], "id": 257344, "original_language": "en"}, {"poster_path": "/t90Y3G8UGQp0f0DrP60wRu9gfrH.jpg", "title": "Avengers: Age of Ultron", "overview": "When Tony Stark tries to jumpstart a dormant peacekeeping program, things go awry and Earth\u2019s Mightiest Heroes are put to the ultimate test as the fate of the planet hangs in the balance. As the villainous Ultron emerges, it is up to The Avengers to stop him from enacting his terrible plans, and soon uneasy alliances and unexpected action pave the way for an epic and unique global adventure.", "release_date": "2015-05-01", "popularity": 13.869599, "original_title": "Avengers: Age of Ultron", "backdrop_path": "/570qhjGZmGPrBGnfx70jcwIuBr4.jpg", "vote_count": 2652, "video": false, "adult": false, "vote_average": 7.6, "genre_ids": [878, 28, 12], "id": 99861, "original_language": "en"}, {"poster_path": "/g23cs30dCMiG4ldaoVNP1ucjs6.jpg", "title": "Fantastic Four", "overview": "Four young outsiders teleport to a dangerous universe, which alters their physical form in shocking ways. Their lives irrevocably upended, the team must learn to harness their daunting new abilities and work together to save Earth from a former friend turned enemy.", "release_date": "2015-08-07", "popularity": 13.810655, "original_title": "Fantastic Four", "backdrop_path": "/3Kgu3ys6W6UZWWFty7rlTWgST63.jpg", "vote_count": 661, "video": false, "adult": false, "vote_average": 4.6, "genre_ids": [28, 12, 878], "id": 166424, "original_language": "en"}, {"poster_path": "/yf8DGTA7K4WAfMm5UwzPsvNKH9C.jpg", "title": "Self/less", "overview": "An extremely wealthy elderly man dying from cancer undergoes a radical medical procedure that transfers his consciousness to the body of a healthy young man but everything may not be as good as it seems when he starts to uncover the mystery of the body's origins and the secret organization that will kill to keep its secrets.", "release_date": "2015-07-10", "popularity": 13.562459, "original_title": "Self/less", "backdrop_path": "/yKY6Sqv7xLHkRGDnfC8fmHRX93i.jpg", "vote_count": 204, "video": false, "adult": false, "vote_average": 6.4, "genre_ids": [9648, 878, 53], "id": 238615, "original_language": "en"}, {"poster_path": "/vweXLAZP6E55EaMeedndhBdXQGu.jpg", "title": "The Rescuers Down Under", "overview": "A lawless poacher wants to capture a majestic and rare golden eagle, so he kidnaps the boy who knows where to find the bird. Not to worry -- the Rescue Aid Society's top agents, heroic mice Miss Bianca and Bernard, fly to Australia to save the day. Accompanying the fearless duo are bumbling albatross Wilbur and local field operative Jake the Kangaroo Rat.", "release_date": "1990-11-16", "popularity": 13.322837, "original_title": "The Rescuers Down Under", "backdrop_path": "/jCbLi7MXY7mO22WO6dVta2fCPmV.jpg", "vote_count": 93, "video": false, "adult": false, "vote_average": 6.3, "genre_ids": [12, 16, 80, 14], "id": 11135, "original_language": "en"}, {"poster_path": "/vlTPQANjLYTebzFJM1G4KeON0cb.jpg", "title": "Maze Runner: The Scorch Trials", "overview": "Thomas and his fellow Gladers face their greatest challenge yet: searching for clues about the mysterious and powerful organization known as WCKD. Their journey takes them to the Scorch, a desolate landscape filled with unimaginable obstacles. Teaming up with resistance fighters, the Gladers take on WCKD\u2019s vastly superior forces and uncover its shocking plans for them all.", "release_date": "2015-09-18", "popularity": 13.017161, "original_title": "Maze Runner: The Scorch Trials", "backdrop_path": "/bAfIhDOte1QKp6BpisfPPEcrROh.jpg", "vote_count": 473, "video": false, "adult": false, "vote_average": 6.7, "genre_ids": [28, 878, 53], "id": 294254, "original_language": "en"}, {"poster_path": "/aBBQSC8ZECGn6Wh92gKDOakSC8p.jpg", "title": "Insurgent", "overview": "Beatrice Prior must confront her inner demons and continue her fight against a powerful alliance which threatens to tear her society apart.", "release_date": "2015-03-20", "popularity": 12.344727, "original_title": "Insurgent", "backdrop_path": "/L5QRL1O3fGs2hH1LbtYyVl8Tce.jpg", "vote_count": 1298, "video": false, "adult": false, "vote_average": 6.7, "genre_ids": [53, 28, 878, 10749], "id": 262500, "original_language": "en"}]}