{"total_results": 3189, "total_pages": 160, "page": 1, "results": [{"known_for": [{"poster_path": "/4JoHJVv0MbP97i6wTWENk3p3fHw.jpg", "title": "Kicha Vayasu 16", "overview": "This is another film that centers around the pranks of teenagers. This film is rated 18 in Singapore.  Jai Akash comes to Nagerkoil as the Collector. His reminiscences of his school days in Nagerkoil, forms the main theme of the film. Manikantan who comes in the role of the 16 year old Kicha is like our typical naughty neighborhood boy.  The boy Kicha used to eye becomes the headmistress of his school and this delights Kicha. Kicha who always teases everybody else, is however very well behaved towards headmistress Nirmala (Simran). So he always gets her support. But he leads a group of errant boys and together they steal the school vessels and sell them and also eat in hotels and give the slip without paying the bill. He is only a good friend to this one girl, but she falls in love with him.", "release_date": "2005-03-24", "popularity": 1.0007159999999999, "original_title": "Kicha Vayasu 16", "backdrop_path": "/v8KjwMFEUNcEvMjXNHiIKUXmIEW.jpg", "vote_count": 0, "video": false, "adult": false, "vote_average": 0, "media_type": "movie", "original_language": "en", "id": 335793, "genre_ids": []}], "name": "A. N. Rajagopal", "popularity": 1, "adult": false, "profile_path": null, "id": 1454302}, {"known_for": [{"poster_path": "/b4V6MPt8vHhR9hCydTGRhdfJkER.jpg", "title": "After the Curfew", "overview": "A hero of revolution returns to civilian life to find the new society very different from the ideals he fought for.", "release_date": "1954-01-01", "popularity": 1.000143, "original_title": "Lewat Djam Malam", "backdrop_path": "/gFjfz3kj24BuVBsNGNVVIGcA5Mq.jpg", "vote_count": 1, "video": false, "adult": false, "vote_average": 7.5, "media_type": "movie", "original_language": "en", "id": 172597, "genre_ids": []}], "name": "A. N. Alcaff", "popularity": 1, "adult": false, "profile_path": null, "id": 1155195}, {"known_for": [], "name": "Ravi Nanda Periyasaami", "popularity": 1.7, "adult": false, "profile_path": null, "id": 1504462}, {"known_for": [{"poster_path": "/97wicwLTvmStWysIsSs9DbExBmY.jpg", "title": "Karimpin Poovinakkare", "overview": "The film revolves around the life and revenge of a few villagers against each other.", "release_date": "1985-11-14", "popularity": 1, "original_title": "Karimpin Poovinakkare", "backdrop_path": "/wdvMeLpYjqB1FEK0yxrsJsEfLhb.jpg", "vote_count": 1, "video": false, "adult": false, "vote_average": 7, "media_type": "movie", "original_language": "ml", "id": 277893, "genre_ids": [80, 18]}], "name": "N A Tara", "popularity": 1.0188999999999999, "adult": false, "profile_path": null, "id": 1439644}, {"known_for": [{"poster_path": null, "title": "Ragasiya Police", "overview": "Overview Coming Soon...", "release_date": "1995-10-23", "popularity": 1.000143, "original_title": "Ragasiya Police", "backdrop_path": null, "vote_count": 0, "video": false, "adult": false, "vote_average": 0, "media_type": "movie", "original_language": "en", "id": 78617, "genre_ids": [28, 18]}], "name": "Sundaresan A N", "popularity": 1, "adult": false, "profile_path": null, "id": 584722}, {"known_for": [{"poster_path": null, "title": "Ittefaq", "overview": "Taking place almost entirely over the course of one stormy night, a woman is terrified when an accused murderer escapes from a mental hospital and seeks refuge in her home.", "release_date": "1969-10-04", "popularity": 1.0000899999999999, "original_title": "Ittefaq", "backdrop_path": null, "vote_count": 0, "video": false, "adult": false, "vote_average": 0, "media_type": "movie", "original_language": "ab", "id": 166874, "genre_ids": [9648, 53]}], "name": "Nanda", "popularity": 1, "adult": false, "profile_path": null, "id": 1574246}, {"known_for": [{"poster_path": "/p1zNzI7y1HZMvdpVmYT4S8NKuOs.jpg", "title": "Bade Dil Wala", "overview": "Amrit's generosity and kindness initially lands him in the bad books of a dancer; then in prison; and then as false son-in-law of a very wealthy man.", "release_date": "1983-09-24", "popularity": 1.0000009999999999, "original_title": "Bade Dil Wala", "backdrop_path": "/n1w7J1eHyZISejyzRWparzdiPr2.jpg", "vote_count": 1, "video": false, "adult": false, "vote_average": 7, "media_type": "movie", "original_language": "en", "id": 104065, "genre_ids": [28, 18, 80]}, {"poster_path": null, "title": "Sawan Ki Ghata", "overview": "Sawan Ki Ghata is a 1966 Bollywood film produced and directed by Shakti Samanta. The film stars Manoj Kumar, Sharmila Tagore, Mumtaz, Pran, Madan Puri.", "release_date": "1976-05-22", "popularity": 1.000006, "original_title": "Sawan Ki Ghata", "backdrop_path": null, "vote_count": 0, "video": false, "adult": false, "vote_average": 0, "media_type": "movie", "original_language": "hi", "id": 108338, "genre_ids": [10749]}, {"poster_path": "/zFNjS8cFGj1j24W3lS4oPZcTTBc.jpg", "title": "Khilona", "overview": "Thakur Suraj Singh lives a wealthy lifestyle with his wife; three sons - Kishore, his wife Laxmi & two children Pappu and Laali; Vijaykamal, & Mohan; and an unmarried daughter, Radha. Kishore looks after the family business, while Vijaykamal is a renowned poet, and Mohan is studying law in the city. Vijaykamal is in love with lovely Sapna, but she is forced to marry Bihari, and kills herself on the night of the marriage. Vijaykamal witnesses her death and loses his mind. The family decide to keep him under lock and key on the terrace of their house. Unable to admit Vijaykamal to a mental asylum, Suraj brings home a young courtesan, Chand, who he hopes will cure Vijaykamal, and she does succeed considerably, but is traumatized, sexually assaulted by Vijaykamal, and abused by the rest of the family.", "release_date": "1970-03-02", "popularity": 1.075, "original_title": "Khilona", "backdrop_path": null, "vote_count": 0, "video": false, "adult": false, "vote_average": 0, "media_type": "movie", "original_language": "en", "id": 172671, "genre_ids": []}], "name": "Gulshan Nanda", "popularity": 1.21, "adult": false, "profile_path": null, "id": 1035452}, {"known_for": [{"poster_path": "/acr3CyUUwXxGY2sLtcnoJKANECH.jpg", "title": "Il medico della mutua", "overview": "", "release_date": "1968-10-23", "popularity": 1.000143, "original_title": "Il medico della mutua", "backdrop_path": null, "vote_count": 5, "video": false, "adult": false, "vote_average": 6.7999999999999998, "media_type": "movie", "original_language": "it", "id": 58188, "genre_ids": [35]}, {"poster_path": "/v5Xg2Z7lt4UMoXxfx5HIdLdhsfJ.jpg", "title": "Questo e quello", "overview": "", "release_date": "1983-12-21", "popularity": 1, "original_title": "Questo e quello", "backdrop_path": null, "vote_count": 3, "video": false, "adult": false, "vote_average": 4.6699999999999999, "media_type": "movie", "original_language": "it", "id": 58614, "genre_ids": [35]}, {"poster_path": "/DsXt5G7YxtbV2gNF066gw3FE5i.jpg", "title": "Meo Patacca", "overview": "Adapted from the mock-heroic poem in Roman dialect, tells the misadventures of the young trasteverino Bartolomeo Patacca that, because of the ambition of his woman, is having to train a group of beggars to go fight in defense of Christianity in Vienna, besieged by the Turks.", "release_date": "1972-09-27", "popularity": 1.0649999999999999, "original_title": "Meo Patacca", "backdrop_path": "/bQxmKRL7vlqwvg1mggmsNlQNfa8.jpg", "vote_count": 1, "video": false, "adult": false, "vote_average": 6, "media_type": "movie", "original_language": "it", "id": 337733, "genre_ids": [12, 35]}], "name": "Nanda Primavera", "popularity": 1.008505, "adult": false, "profile_path": null, "id": 227515}, {"known_for": [{"poster_path": "/xzXT3CH6QGY5GsqRR9gS1ZQGNhP.jpg", "title": "Separa\u00e7\u00f5es", "overview": "Cabral is a 60 year old playwright, and he's been married to Glorinha for half her life. Now they're getting bored...", "release_date": "2003-01-03", "popularity": 1.000329, "original_title": "Separa\u00e7\u00f5es", "backdrop_path": null, "vote_count": 0, "video": false, "adult": false, "vote_average": 0, "media_type": "movie", "original_language": "pt", "id": 241182, "genre_ids": [10751, 35, 10749]}], "name": "Nanda Rocha", "popularity": 1.0025520000000001, "adult": false, "profile_path": null, "id": 1411191}, {"known_for": [{"poster_path": "/eKUemqyt6OSyZENeHgTZUwIGN8r.jpg", "title": "Sugar Town", "overview": "", "release_date": "1999-09-17", "popularity": 1.00057, "original_title": "Sugar Town", "backdrop_path": null, "vote_count": 1, "video": false, "adult": false, "vote_average": 4, "media_type": "movie", "original_language": "en", "id": 142132, "genre_ids": [35]}, {"poster_path": "/k2xDia6LfxvMN87R4QOauYeEaQw.jpg", "title": "Sideways", "overview": "Sideways A heartwarming tale of two old friends, on a journey to rediscover their friendship, life and themselves. Michio (Fumio Kohinata) a struggling, middleaged scriptwriter, who returns to the US to attend the wedding of his best friend. Daisuke (Katsuhisa Namase), who stayed in the California after college, had a brief stint of fame as Captain Ninja, a childrens action hero now manages a restaurant Together, they venture out on a weeklong road trip, ending up in the Napa Valley, where they serendipitously meet up with an old heart throb Mayuko (Kyoka Suzuki), whom Michio tutored during his exchange student days 20 years past, and her free spirited friend Mina (Rinko Kikuchi) raised in America. Michio under the impression that they were going wine tasting, soon discovers that Daisuke has ulterior motives for this last hurrah as a bachelor.", "release_date": "2009-10-31", "popularity": 1.001322, "original_title": "Saidoweizu", "backdrop_path": null, "vote_count": 1, "video": false, "adult": false, "vote_average": 4, "media_type": "movie", "original_language": "en", "id": 128169, "genre_ids": [10769, 35, 10749]}, {"poster_path": "/l88jkyp5RwCJ9TyqzYoqdgogoFV.jpg", "title": "Dead Girl", "overview": "Ari Rose (Howard) is not your typical romantic. He has two passions in life ... seducing the woman of his dreams (Parillaud) and making sure she NEVER leaves. A very dark comedy with identifiable themes (although quite extreme at times) about love, sex, obsession, paranoia and depression. This was an experimental film that was never intended for commercial release but it's great none the less.", "release_date": "1996-01-01", "popularity": 1.07542, "original_title": "Dead Girl", "backdrop_path": "/bStsdsDZZCrmRARIEHDurZAiwJh.jpg", "vote_count": 2, "video": false, "adult": false, "vote_average": 5.25, "media_type": "movie", "original_language": "en", "id": 34646, "genre_ids": [35]}], "name": "Nanda Rao", "popularity": 1.0011479999999999, "adult": false, "profile_path": null, "id": 112751}, {"known_for": [{"poster_path": "/lhu3l0emC9U5jeoxBsb1WHk8VNP.jpg", "title": "Mullassery Madhavan Kutty Nemom P. O.", "overview": "Madhavan Kutty (Anoop Menon) leads a comfortable life with his wife Seetha (Sonal) and his daughter. He has a decent job in a government office, and is a man who seems at peace with himself. A random tiff with an ex-school mate (Nishanth Sagar) makes Madhavan Kutty do the unthinkable, and he sets out to produce a film.", "release_date": "2012-02-10", "popularity": 1.0014289999999999, "original_title": "Mullassery Madhavan Kutty Nemom P. O.", "backdrop_path": "/pXiKRHzQUv5cxvUMEbBD1yOax4C.jpg", "vote_count": 0, "video": false, "adult": false, "vote_average": 0, "media_type": "movie", "original_language": "en", "id": 214512, "genre_ids": [18]}], "name": "Kumar Nanda", "popularity": 1.000014, "adult": false, "profile_path": null, "id": 1199162}, {"known_for": [{"poster_path": "/1VdPkAOdlhWKKPQ0uHJ1B3Nr5u.jpg", "title": "Jambhavan", "overview": "Jambhavan movie is about Velan (Prashanth) who is a responsible son of a village landlord (Vijayakumar). Adored by the villagers for his good deeds, Prashanth gets a shock when Vijayakumar informs that he is his foster son.A shocked Velan sets out on a mission to know about his past. He reaches Chennai and comes to know that his family members were killed by a dreaded gangster Deva (Vijayan). He had then vowed to kill him and his gang. In the name of Jambhavan, he starts to kill rowdies in the society.Suffering an injury in his head, Velan loses memory and is later adopted by Vijayakumar. He comes to know that his job was just half-done. The rest is how he puts an end to Fefsi Vijayan and his men coming to Chennai.", "release_date": "2006-09-01", "popularity": 1.000429, "original_title": "Jambhavan", "backdrop_path": "/2BCdV6sw9oPNHd6r4N4tngEnzR4.jpg", "vote_count": 1, "video": false, "adult": false, "vote_average": 4, "media_type": "movie", "original_language": "en", "id": 277884, "genre_ids": [18]}], "name": "Nanda Kumar", "popularity": 1.0000039999999999, "adult": false, "profile_path": null, "id": 1332728}, {"known_for": [{"poster_path": "/kt1YKMxfMHXIee83M0mG3oMdSSi.jpg", "title": "Om Jai Jagadish", "overview": "Widowed Mrs. Saraswati Batra (Waheeda Rehman) has brought up three sons with a lot of care and love. Her eldest son Om (Anil Kapoor) is very honest and diligent; her two other sons Jai (Fardeen Khan), and Jagdish (Abhishek Bachchan) also live in the same house. this is their story", "release_date": "2002-07-08", "popularity": 1.000367, "original_title": "Om Jai Jagadish", "backdrop_path": "/rG7Y9NQN5uuv6D9TM9V0b0OV3q.jpg", "vote_count": 1, "video": false, "adult": false, "vote_average": 6, "media_type": "movie", "original_language": "en", "id": 33146, "genre_ids": [10769]}], "name": "Rahul Nanda", "popularity": 1, "adult": false, "profile_path": null, "id": 110193}, {"known_for": [{"poster_path": "/tPuPbPCg0cAwWAAasVAyy4366BA.jpg", "title": "Return to Rajapur", "overview": "A doomed love affair blooms against the beautiful and exotic backdrop of the deserts of India in this romantic drama. Samantha Hartley (Kelli Garner) is a woman in her early twenties who travels to Rajapur in India to visit a resort where her mother stayed years ago. While tracing the steps of her mother, Sara (Lynn Collins), Samantha learns the true story about her mother's stormy marriage to Jeremy (Justin Theroux), a charming but moody alcoholic. Only a few days after their wedding, Sara began to wonder if marrying Jeremy was a mistake, and while visiting India on their honeymoon, Sara met Jai Singh (Manoj Bajpai), a handsome and sensitive widower living in Rajapur. Jai Singh, who speaks fluent English, soon strikes up a friendship with Sara that quickly grows into a romance, but both are aware of the transgressive nature of their love, and their affair takes a tragic turn, leaving its scars on all parties involved.", "release_date": "2006-11-01", "popularity": 1.0017370000000001, "original_title": "Return to Rajapur", "backdrop_path": null, "vote_count": 0, "video": false, "adult": false, "vote_average": 0, "media_type": "movie", "original_language": "en", "id": 80261, "genre_ids": []}], "name": "Nanda Anand", "popularity": 1, "adult": false, "profile_path": null, "id": 589088}, {"known_for": [{"poster_path": "/AwcGR6t9C4S4T6xfnSGtZgftEBC.jpg", "title": "The Last Night", "overview": "Two psychos escape from the maximum security wing of Broadmoor Prison and sneak in the backdoor of a theatre to hide away while a performance of a stage play titled \"Murder in the Dark\" stages its final night.", "release_date": "1983-05-14", "popularity": 1, "original_title": "The Last Night", "backdrop_path": null, "vote_count": 0, "video": false, "adult": false, "vote_average": 0, "media_type": "movie", "original_language": "en", "id": 84985, "genre_ids": [18, 27, 10749]}], "name": "Nanda Adkin", "popularity": 1, "adult": false, "profile_path": null, "id": 1467758}, {"known_for": [{"poster_path": "/nUU0uakLDAvSiZKmUloSUsOilfa.jpg", "title": "Adyaksha", "overview": "Adyaksha (Kannada: \u0c85\u0ca7\u0ccd\u0caf\u0c95\u0ccd\u0cb7) is a 2014 Indian Kannada language comedy film directed by Nanda Kishore. It stars Sharan, Heeba Patel, P. Ravi Shankar, Malavika Avinash, Chikanna and Ramesh Bhat. It is a remake of the Tamil film Varuthapadatha Valibar Sangam.[", "release_date": "2014-08-15", "popularity": 1.0041990000000001, "original_title": "Adyaksha", "backdrop_path": null, "vote_count": 0, "video": false, "adult": false, "vote_average": 0, "media_type": "movie", "original_language": "en", "id": 356776, "genre_ids": [35]}], "name": "Nanda Kishore", "popularity": 1, "adult": false, "profile_path": null, "id": 1501861}, {"known_for": [{"poster_path": null, "title": "Sadgamaya", "overview": "Sadgamaya movie is all about doctor", "release_date": "2010-10-22", "popularity": 1.0009999999999999, "original_title": "Sadgamaya", "backdrop_path": null, "vote_count": 0, "video": false, "adult": false, "vote_average": 0, "media_type": "movie", "original_language": "en", "id": 278217, "genre_ids": [18]}], "name": "Nanda Kumar", "popularity": 1, "adult": false, "profile_path": null, "id": 1333411}, {"known_for": [{"poster_path": "/1RDiOAUP23qIhOF9QRciEaJqpdF.jpg", "title": "Banyu Biru", "overview": "Banyu Biru is a road movie on how to rediscover love. Banyu (Tora Sudiro), a young supermarket customer service rep, is absorbed in his daily routine when a strange incident inspires him to hit the road and solve past family issues. He is haunted by a childhood tragedy, the death of his little sister, Biru, and his father's lack of care for the family. Banyu encounters a myriad of colorful characters who ultimately lead him to find the answer that he is looking for.", "release_date": "2005-03-10", "popularity": 1.000429, "original_title": "Banyu Biru", "backdrop_path": "/jv1YrMRoApEa1PbOvg7rO2TZVPA.jpg", "vote_count": 0, "video": false, "adult": false, "vote_average": 0, "media_type": "movie", "original_language": "id", "id": 360764, "genre_ids": []}], "name": "Nanda Giri", "popularity": 1, "adult": false, "profile_path": null, "id": 1512575}, {"known_for": [{"origin_country": ["BR"], "poster_path": "/qfmqMUwSYMkLPXzIXFFb0F8TdsN.jpg", "name": "Jos\u00e9 do Egito", "overview": "", "popularity": 1.018, "original_name": "Jos\u00e9 do Egito", "backdrop_path": "/pa6ok42pBnCRkDW25wlR6U8LVJ6.jpg", "first_air_date": "2013-01-30", "vote_count": 1, "vote_average": 10, "media_type": "tv", "original_language": "pt", "id": 65166, "genre_ids": [99, 18, 10751]}, {"origin_country": ["BR"], "poster_path": null, "name": "Rebel Rio", "overview": "Elite Way is one of the most renowned educational institutions in the country, where students have access to high quality education and play sports. Despite the rigid schedule, the richest families in Rio de Janeiro want that their children study in the Elite Way. This is the case of Alice, Diego, Roberta, Carla and Tom\u00e1s, some rebel teenagers and full of fancies that will discover in music a common goal.\n\n", "popularity": 1, "original_name": "Rebelde", "backdrop_path": null, "first_air_date": "", "vote_count": 0, "vote_average": 0, "media_type": "tv", "original_language": "pt", "id": 46154, "genre_ids": []}], "name": "Nanda Ziegler", "popularity": 1, "adult": false, "profile_path": null, "id": 1257378}, {"known_for": [{"poster_path": "/yDacuhYfBO4gWv8ilAoVQ6ZotNJ.jpg", "title": "Stolen Dreams", "overview": "Jessica, Sabrina and Daiane have dreams, just like all young people of any social class or place in the world. They live in a low-income neighborhood in the periphery of Rio de Janeiro and find in prostitution a way to survive and satisfy their consumer desires. However, even faced with the trials of absolute uncertainty and lack of hope, Jessica, Sabrina and Daiane insist on loving, having fun and planning their future.", "release_date": "2009-09-25", "popularity": 1.0010399999999999, "original_title": "Sonhos Roubados", "backdrop_path": "/x5dXQhCUqOoJLivUXaUSkUpNP6u.jpg", "vote_count": 4, "video": false, "adult": false, "vote_average": 6.3799999999999999, "media_type": "movie", "original_language": "en", "id": 45170, "genre_ids": [18]}, {"poster_path": "/8f97oxuD8NLB4m5BsqW6Gr70LOo.jpg", "title": "Gonzaga \u2013 De Pai Pra Filho", "overview": "", "release_date": "2012-10-26", "popularity": 1.0027060000000001, "original_title": "Gonzaga \u2013 De Pai Pra Filho", "backdrop_path": "/2mUfK0Jgd6I9zI3q53u6qZsj6Ze.jpg", "vote_count": 4, "video": false, "adult": false, "vote_average": 6, "media_type": "movie", "original_language": "pt", "id": 129705, "genre_ids": [18]}, {"poster_path": "/5SjY5CyYaxkh5tWXJ8wSfHhX3it.jpg", "title": "Rat Fever", "overview": "Zizo, a radical and anarchist poet living in a marginal quarter of Recife in the north eastern state of Pernambuco, distributes his social angst-filled thoughts through a publication named Febre do Rato, and spews poetry to anyone who\u2019d listen. Our character always revolves within the universe that he has created around himself. A very particular world, in which satisfying the unfortunate is a mixture of a kind of benefit with high dose of malice...", "release_date": "2012-06-22", "popularity": 1.001957, "original_title": "Febre do Rato", "backdrop_path": "/4R399mR7Bqiyu87qrTVHkCvtyJg.jpg", "vote_count": 0, "video": false, "adult": false, "vote_average": 0, "media_type": "movie", "original_language": "pt", "id": 133569, "genre_ids": [18]}], "name": "Nanda Costa", "popularity": 1, "adult": false, "profile_path": "/vLB2XIbQ0KEA1JgOpvp65QrzR0B.jpg", "id": 1045953}]}