{"total_results": 1010, "dates": {"minimum": "2016-01-14", "maximum": "2016-02-25"}, "total_pages": 51, "page": 1, "results": [{"poster_path": "/inVq3FRqcYIRl2la8iZikYYxFNR.jpg", "title": "Deadpool", "overview": "Based upon Marvel Comics\u2019 most unconventional anti-hero, DEADPOOL tells the origin story of former Special Forces operative turned mercenary Wade Wilson, who after being subjected to a rogue experiment that leaves him with accelerated healing powers, adopts the alter ego Deadpool. Armed with his new abilities and a dark, twisted sense of humor, Deadpool hunts down the man who nearly destroyed his life.", "release_date": "2016-02-09", "popularity": 96.310016000000005, "original_title": "Deadpool", "backdrop_path": "/nbIrDhOtUpdD9HKDBRy02a8VhpV.jpg", "vote_count": 1116, "video": false, "adult": false, "vote_average": 7.29, "original_language": "en", "id": 293660, "genre_ids": [28, 12, 35]}, {"poster_path": "/cgxEscv6TQRK6a514FwuJOjcqQ5.jpg", "title": "The 5th Wave", "overview": "16-year-old Cassie Sullivan tries to survive in a world devastated by the waves of an alien invasion that has already decimated the population and knocked mankind back to the Stone Age.", "release_date": "2016-01-14", "popularity": 18.299565000000001, "original_title": "The 5th Wave", "backdrop_path": "/9mNklILambgAb1mUm8912yaSjar.jpg", "vote_count": 258, "video": false, "adult": false, "vote_average": 4.9699999999999998, "original_language": "en", "id": 299687, "genre_ids": [12, 878, 53]}, {"poster_path": "/dwRHF43p50wLIYAIxrUhLkK3jCI.jpg", "title": "Triple 9", "overview": "A gang of criminals and corrupt cops plan the murder of a police officer in order to pull off their biggest heist yet across town.", "release_date": "2016-02-19", "popularity": 14.185774, "original_title": "Triple 9", "backdrop_path": "/yB5f25CPuTrb6XSbd076kzR9Qz6.jpg", "vote_count": 54, "video": false, "adult": false, "vote_average": 3.79, "original_language": "en", "id": 146198, "genre_ids": [80, 18, 53]}, {"poster_path": "/24qz9HuZY8K3Cdo4hRWkmztT7gH.jpg", "title": "Kung Fu Panda 3", "overview": "Continuing his \"legendary adventures of awesomeness\", Po must face two hugely epic, but different threats: one supernatural and the other a little closer to his home.", "release_date": "2016-01-23", "popularity": 10.440191, "original_title": "Kung Fu Panda 3", "backdrop_path": "/eHWmEUP4fa7h1Fe7TXfTL7ncDl8.jpg", "vote_count": 188, "video": false, "adult": false, "vote_average": 5.7400000000000002, "original_language": "en", "id": 140300, "genre_ids": [28, 12, 16, 35, 10751]}, {"poster_path": "/fOLtpih2cxw2hFlJZMohfsYnLZ9.jpg", "title": "Zootopia", "overview": "In the animal city of Zootopia, a fast-talking fox who's trying to make it big goes on the run when he's framed for a crime he didn't commit. Zootopia's top cop, a self-righteous rabbit, is hot on his tail, but when both become targets of a conspiracy, they're forced to team up and discover even natural enemies can become best friends.", "release_date": "2016-02-12", "popularity": 10.32235, "original_title": "Zootopia", "backdrop_path": "/mhdeE1yShHTaDbJVdWyTlzFvNkr.jpg", "vote_count": 65, "video": false, "adult": false, "vote_average": 6.1399999999999997, "original_language": "en", "id": 269149, "genre_ids": [35, 16, 28, 12, 10751]}, {"poster_path": "/rzMYZYphL9qrbBClQq1Jc0zPMmY.jpg", "title": "Hail, Caesar!", "overview": "Tells the comedic tale of Eddie Mannix, a fixer who worked for the Hollywood studios in the 1950s. The story finds him at work when a star mysteriously disappears in the middle of filming.", "release_date": "2016-02-05", "popularity": 7.577045, "original_title": "Hail, Caesar!", "backdrop_path": "/jIV2KGMyE8geJj2ymrau0CHMKJK.jpg", "vote_count": 96, "video": false, "adult": false, "vote_average": 4.9199999999999999, "original_language": "en", "id": 270487, "genre_ids": [35, 18, 10402, 9648]}, {"poster_path": "/jfGsfzq5JrMAKbAOV2TmhsOs3tf.jpg", "title": "The Witch", "overview": "New England in the 1630s: William and Katherine lead a devout Christian life with five children, homesteading on the edge of an impassable wilderness. When their newborn son vanishes and crops fail, the family turns on one another. Beyond their worst fears, a supernatural evil lurks in the nearby wood.", "release_date": "2016-02-19", "popularity": 7.5503330000000002, "original_title": "The Witch", "backdrop_path": "/dIkFrbXX9OrUqPcrunJ6GSweTML.jpg", "vote_count": 66, "video": false, "adult": false, "vote_average": 4.9199999999999999, "original_language": "en", "id": 310131, "genre_ids": [27]}, {"poster_path": "/szLfTQ2vLFQkNbP3dc0pnco1rje.jpg", "title": "Race", "overview": "Jesse Owens' quest to become the greatest track and field athlete in history thrusts him onto the world stage of the 1936 Olympics, where he faces off against Adolf Hitler's vision of Aryan supremacy.", "release_date": "2016-02-19", "popularity": 6.9475410000000002, "original_title": "Race", "backdrop_path": "/wS83FGiPvlELjAHk1L90AGj62pR.jpg", "vote_count": 31, "video": false, "adult": false, "vote_average": 3.6800000000000002, "original_language": "en", "id": 323677, "genre_ids": [18]}, {"poster_path": "/5pVA4m8oTGN1ML9iQXtmaFRzQoE.jpg", "title": "How to Be Single", "overview": "New York City is full of lonely hearts seeking the right match, and what Alice, Robin, Lucy, Meg, Tom and David all have in common is the need to learn how to be single in a world filled with ever-evolving definitions of love.", "release_date": "2016-02-10", "popularity": 6.6829960000000002, "original_title": "How to Be Single", "backdrop_path": "/A28vwZK5I3BECxrdgUyWJyKc9Tv.jpg", "vote_count": 73, "video": false, "adult": false, "vote_average": 4.7699999999999996, "original_language": "en", "id": 259694, "genre_ids": [35, 10749]}, {"poster_path": "/yTdTuJww8NnL9YLaxL2LxDG5uQ7.jpg", "title": "Gods of Egypt", "overview": "A common thief joins a mythical god on a quest through Egypt.", "release_date": "2016-02-25", "popularity": 6.0807549999999999, "original_title": "Gods of Egypt", "backdrop_path": "/c6hYHIv2KYgt8TLcJpn12kmqS08.jpg", "vote_count": 27, "video": false, "adult": false, "vote_average": 3.0699999999999998, "original_language": "en", "id": 205584, "genre_ids": [12, 14]}, {"poster_path": "/u2s2WOskiEH71WbGCZehZ0shduO.jpg", "title": "Zoolander 2", "overview": "Derek and Hansel are modelling again when an opposing company attempts to take them out from the business.", "release_date": "2016-02-06", "popularity": 5.8922270000000001, "original_title": "Zoolander 2", "backdrop_path": "/qIYOV0QhnlreWKKGPY5BlGcILFV.jpg", "vote_count": 79, "video": false, "adult": false, "vote_average": 4.9900000000000002, "original_language": "en", "id": 329833, "genre_ids": [35]}, {"poster_path": "/cr8lQd94bxlhyDfimweUMnLZoxf.jpg", "title": "Risen", "overview": "Follows the epic Biblical story of the Resurrection, as told through the eyes of a non-believer. Clavius, a powerful Roman Military Tribune, and his aide Lucius, are tasked with solving the mystery of what happened to Jesus in the weeks following the crucifixion, in order to disprove the rumors of a risen Messiah and prevent an uprising in Jerusalem.", "release_date": "2016-02-19", "popularity": 5.3558620000000001, "original_title": "Risen", "backdrop_path": "/cBnYZr2FeU6fzkMbkHzzeT5RBrw.jpg", "vote_count": 36, "video": false, "adult": false, "vote_average": 2.9300000000000002, "original_language": "en", "id": 335778, "genre_ids": [28, 9648, 18, 12]}, {"poster_path": "/A739odgY2FjoLvYLYdypUc6GpaY.jpg", "title": "Ride Along 2", "overview": "As his wedding day approaches, Ben heads to Miami with his soon-to-be brother-in-law James to bring down a drug dealer who's supplying the dealers of Atlanta with product.", "release_date": "2016-01-14", "popularity": 5.0575039999999998, "original_title": "Ride Along 2", "backdrop_path": "/3SEsPAVLPh4ZTKGUdI1GjfVgaA.jpg", "vote_count": 100, "video": false, "adult": false, "vote_average": 5.9400000000000004, "original_language": "en", "id": 323675, "genre_ids": [35, 28]}, {"poster_path": "/zRq8AhChMrOPEm2S67gAvOCsZsa.jpg", "title": "Dirty Grandpa", "overview": "Right before his wedding, an uptight guy is tricked into driving his grandfather, a perverted former Army general, to Florida for spring break.", "release_date": "2016-01-21", "popularity": 5.0133539999999996, "original_title": "Dirty Grandpa", "backdrop_path": "/fjRggEnzzWD0bWKJEQ01zi0Ke43.jpg", "vote_count": 182, "video": false, "adult": false, "vote_average": 3.98, "original_language": "en", "id": 291870, "genre_ids": [12, 35]}, {"poster_path": "/lISBWF6UUF3cQPcoLE8pMxnyJty.jpg", "title": "The Boy", "overview": "A nanny, working for a family whose son has just passed away, finds herself put in charge of caring for a lifelike doll that the couple treat as a real child.", "release_date": "2016-01-22", "popularity": 4.5500230000000004, "original_title": "The Boy", "backdrop_path": "/aOvgn3E5OjJDepApd1WtS2doqMF.jpg", "vote_count": 70, "video": false, "adult": false, "vote_average": 5.1299999999999999, "original_language": "en", "id": 321258, "genre_ids": [27, 53]}, {"poster_path": "/ubdmnIbKZk3BE9cAA3tVzLZ46SB.jpg", "title": "Pride and Prejudice and Zombies", "overview": "A zombie outbreak has fallen upon the land in this reimagining of Jane Austen\u2019s classic tale of the tangled relationships between lovers from different social classes in 19th century England. Feisty heroine Elizabeth Bennet (Lily James) is a master of martial arts and weaponry and the handsome Mr. Darcy (Sam Riley) is a fierce zombie killer, yet the epitome of upper class prejudice. As the zombie outbreak intensifies, they must swallow their pride and join forces on the blood-soaked battlefield in order to conquer the undead once and for all.", "release_date": "2016-02-04", "popularity": 4.3268740000000001, "original_title": "Pride and Prejudice and Zombies", "backdrop_path": "/6DtEY8RDbmnihJbvRKRTatgTHlx.jpg", "vote_count": 50, "video": false, "adult": false, "vote_average": 4.7599999999999998, "original_language": "en", "id": 58431, "genre_ids": [10749, 27, 35, 53]}, {"poster_path": "/a2XtQn0wNVbjULiijYES9PZ4sRp.jpg", "title": "Forsaken", "overview": "John Henry returns to his hometown in hopes of repairing his relationship with his estranged father, but a local gang is terrorizing the town. John Henry is the only one who can stop them, however he has abandoned both his gun and reputation as a fearless quick-draw killer.", "release_date": "2016-02-19", "popularity": 4.1427189999999996, "original_title": "Forsaken", "backdrop_path": "/lHRlCGrLkl8udJFxorUBmL782bp.jpg", "vote_count": 3, "video": false, "adult": false, "vote_average": 4.8300000000000001, "original_language": "en", "id": 354110, "genre_ids": [37, 18]}, {"poster_path": "/fwVp9eya6QB7GUj2TrDZaNR25XP.jpg", "title": "Partee", "overview": "A story of the different false possibilities created by an \"intoxicating substance\" induced in someone\u2019s life. It's a narrative that completely breaks the moral compass and defies the rules of society. The three characters in the film discover a fiction that transcends moral boundaries.", "release_date": "2016-02-22", "popularity": 4, "original_title": "Partee", "backdrop_path": null, "vote_count": 0, "video": false, "adult": false, "vote_average": 0, "original_language": "en", "id": 383935, "genre_ids": [18]}, {"poster_path": "/gnaYGirOc5lHVLi3b8Ph1PNmqwD.jpg", "title": "Films Confiscated from a French Brothel", "overview": "\"Films Confiscated from a French Brothel\" is a bare all Avant-garde Anthology homage to silent stag films.", "release_date": "2016-02-22", "popularity": 3.8334760000000001, "original_title": "Films Confiscated from a French Brothel", "backdrop_path": null, "vote_count": 12, "video": false, "adult": false, "vote_average": 2.5800000000000001, "original_language": "en", "id": 351064, "genre_ids": [14, 80, 35, 27]}, {"poster_path": "/2QZPAzKzQ3T2yWFfmmjSibRSLUu.jpg", "title": "Embrace of the Serpent", "overview": "The epic story of the first contact, encounter, approach, betrayal and, eventually, life-transcending friendship, between Karamakate, an Amazonian shaman, last survivor of his people, and two scientists that, over the course of 40 years, travel through the Amazon in search of a sacred plant that can heal them. Inspired by the journals of the first explorers of the Colombian Amazon, Theodor Koch-Grunberg and Richard Evans Schultes.", "release_date": "2016-02-17", "popularity": 3.7878759999999998, "original_title": "El Abrazo de la Serpiente", "backdrop_path": "/Ak7awA4BgIFW1Nj2STJQ91bSEvk.jpg", "vote_count": 14, "video": false, "adult": false, "vote_average": 5.21, "original_language": "es", "id": 336808, "genre_ids": [18, 12]}]}