{"total_results": 137, "dates": {"minimum": "2016-02-26", "maximum": "2016-03-18"}, "total_pages": 7, "page": 1, "results": [{"poster_path": "/tSFBh9Ayn5uiwbUK9HvD2lrRgaQ.jpg", "title": "The Divergent Series: Allegiant", "overview": "Beatrice Prior and Tobias Eaton venture into the world outside of the fence and are taken into protective custody by a mysterious agency known as the Bureau of Genetic Welfare.", "release_date": "2016-03-09", "popularity": 3.2092350000000001, "original_title": "The Divergent Series: Allegiant", "backdrop_path": "/jaoDlr7XGGtHs1VpN9macrbXheO.jpg", "vote_count": 39, "video": false, "adult": false, "vote_average": 7.0099999999999998, "original_language": "en", "id": 262504, "genre_ids": [12, 878]}, {"poster_path": "/yTheI1PVeNjPi9uVLc6vc8n33RE.jpg", "title": "LEGO DC Comics Super Heroes: Justice League: Cosmic Clash", "overview": "Earth, a shiny jewel floating in the blackness of space... and for the robot known as Brainiac, the last piece to capture for his collection of planets. Not if the Justice League has anything to say about it!", "release_date": "2016-03-01", "popularity": 3.055882, "original_title": "LEGO DC Comics Super Heroes: Justice League: Cosmic Clash", "backdrop_path": "/lMfnE3RAVPd7QCANxG3vOrJERIO.jpg", "vote_count": 2, "video": false, "adult": false, "vote_average": 5, "original_language": "en", "id": 382512, "genre_ids": [16, 10751]}, {"poster_path": "/xian3gx1lzU8phrstN6UqO5gfDC.jpg", "title": "10 Cloverfield Lane", "overview": "Waking up from a car accident, a young woman finds herself in the basement of a man who says he's saved her life from a chemical attack that has left the outside uninhabitable.", "release_date": "2016-03-09", "popularity": 2.8874379999999999, "original_title": "10 Cloverfield Lane", "backdrop_path": "/lZCfk1LNVK8LE9o7XYBHvpMgBc1.jpg", "vote_count": 6, "video": false, "adult": false, "vote_average": 2.6699999999999999, "original_language": "en", "id": 333371, "genre_ids": [18, 9648, 878, 53]}, {"poster_path": "/oN5lELHH5Xheiy0YdhnY3JB4hx2.jpg", "title": "Me Before You", "overview": "A small town girl is caught between dead-end jobs. A high-profile, successful man becomes wheelchair bound following an accident. The man decides his life is not worth living until the girl is hired for six months to be his new caretaker. Worlds apart and trapped together by circumstance, the two get off to a rocky start. But the girl becomes determined to prove to the man that life is worth living and as they embark on a series of adventures together, each finds their world changing in ways neither of them could begin to imagine.", "release_date": "2016-03-03", "popularity": 2.8159290000000001, "original_title": "Me Before You", "backdrop_path": "/jiL6UvMZ9OiJro0YyHbt0zw87MM.jpg", "vote_count": 9, "video": false, "adult": false, "vote_average": 3.2200000000000002, "original_language": "en", "id": 296096, "genre_ids": [18, 10749]}, {"poster_path": "/ryal8iqks1qftWhOQyH5cpJqN4a.jpg", "title": "Boyka: Undisputed IV", "overview": "In the fourth installment of the fighting franchise, Boyka is shooting for the big leagues when an accidental death in the ring makes him question everything he stands for.", "release_date": "2016-03-02", "popularity": 2.5374750000000001, "original_title": "Boyka: Undisputed IV", "backdrop_path": "/kb94eKeWkv8nCynMxwwfDEOyPyn.jpg", "vote_count": 14, "video": false, "adult": false, "vote_average": 3.96, "original_language": "en", "id": 348893, "genre_ids": []}, {"poster_path": "/laEdJnz9CiojWcNpqFjPKhrKuBo.jpg", "title": "Eddie the Eagle", "overview": "The story of Great Britain's first ski jumper to enter the Winter Olympics.", "release_date": "2016-03-11", "popularity": 2.458386, "original_title": "Eddie the Eagle", "backdrop_path": "/6Zy8HlUrFFmJIlsVfv9YOx4PxYO.jpg", "vote_count": 32, "video": false, "adult": false, "vote_average": 2.5499999999999998, "original_language": "en", "id": 319888, "genre_ids": [35]}, {"poster_path": "/22G22rdZsMDO7khe4Ue3G2uwOaw.jpg", "title": "Whiskey Tango Foxtrot", "overview": "A journalist recounts her wartime coverage in Afghanistan and Pakistan.", "release_date": "2016-03-04", "popularity": 2.2466650000000001, "original_title": "Whiskey Tango Foxtrot", "backdrop_path": "/aMNXj0RPFJIsglXl2ewjcc4H1eM.jpg", "vote_count": 13, "video": false, "adult": false, "vote_average": 3.27, "original_language": "en", "id": 279641, "genre_ids": [10752, 35]}, {"poster_path": "/gN7Su6RP9zDXJigHGyGLnRaWqsb.jpg", "title": "My Big Fat Greek Wedding 2", "overview": "The continuing adventures of the Portokalos family. A follow-up to the 2002 comedy, \"My Big Fat Greek Wedding.\"", "release_date": "2016-03-10", "popularity": 2.1906189999999999, "original_title": "My Big Fat Greek Wedding 2", "backdrop_path": "/yNgowLEX1CdSWzcQyfMNVBpOcJ6.jpg", "vote_count": 3, "video": false, "adult": false, "vote_average": 6, "original_language": "en", "id": 302688, "genre_ids": [35]}, {"poster_path": "/zcVfEQjk913S2DhYB9KLF4H8Ze0.jpg", "title": "Kill Kane", "overview": "A teacher's world is torn apart when his wife and children are brutally murdered at the hands of a ruthless gang. Left for dead and with no one to turn to, he takes matters into his own hands and hits the streets in search of justice.", "release_date": "2016-03-01", "popularity": 2.1160779999999999, "original_title": "Kill Kane", "backdrop_path": "/2jCXjl29lZi4vLmSe31y9igiDtW.jpg", "vote_count": 10, "video": false, "adult": false, "vote_average": 3, "original_language": "en", "id": 378092, "genre_ids": [53, 80]}, {"poster_path": "/ntSaGFGT0fK22SDdyFgkxMPTNic.jpg", "title": "Cemetery of Splendour", "overview": "In a hospital, ten soldiers are being treated for a mysterious sleeping sickness. In a story in which dreams can be experienced by others, and in which goddesses can sit casually with mortals, a nurse learns the reason why the patients will never be cured, and forms a telepathic bond with one of them.", "release_date": "2016-03-04", "popularity": 2.0769129999999998, "original_title": "Rak ti Khon Kaen", "backdrop_path": "/c9VeEjtakU1FQP8JlQHJp6NIsGK.jpg", "vote_count": 18, "video": false, "adult": false, "vote_average": 3.1400000000000001, "original_language": "th", "id": 298721, "genre_ids": [14, 18]}, {"poster_path": "/qsTiRNvnoTPbtxMtgNhynJTcgiZ.jpg", "title": "The Bounce Back", "overview": "Father, author and relationship expert, Matthew Taylor is on a whirlwind book tour promoting his new best seller, The Bounce Back. He's got it all figured out until he meets the acerbic Kristin Peralta, a talk show circuit therapist who's convinced he's nothing but a charlatan. Matthew's life is turned upside down when he inadvertently falls for Kristin and has to face painful truth of his past relationship.", "release_date": "2016-02-26", "popularity": 2.0561639999999999, "original_title": "The Bounce Back", "backdrop_path": null, "vote_count": 2, "video": false, "adult": false, "vote_average": 4.25, "original_language": "en", "id": 380121, "genre_ids": [10749]}, {"poster_path": "/p6pxJbZnriwesRGqM2LOE1gFPAQ.jpg", "title": "Desierto", "overview": "A cat and mouse chase between a Mexican undocumented worker and an American vigilante.", "release_date": "2016-03-04", "popularity": 1.82206, "original_title": "Desierto", "backdrop_path": "/50vH49FeoG13dQDaSrEzB0bCmuq.jpg", "vote_count": 2, "video": false, "adult": false, "vote_average": 1, "original_language": "en", "id": 258363, "genre_ids": [18]}, {"poster_path": "/u7YU37jqFpPPcXkhBivJkns27N.jpg", "title": "Kizumonogatari Part 1: Tekketsu", "overview": "One fateful evening, second year high school student Koyomi Araragi has a shocking meeting with Kiss-shot Acerola-orion Heart-under-blade, the \u201cKing of Apparitions.\u201d  She was blindingly beautiful, yet chillingly terrifying. She was a painfully merciless, legendary vampire, with missing limbs.", "release_date": "2016-02-26", "popularity": 1.780745, "original_title": "\u50b7\u7269\u8a9e\u3000\u7b2c\u4e00\u90e8\u3008\u2160\u9244\u8840\u7bc7\u3009", "backdrop_path": "/7yMlkhaC1Qc4mypplTG9prZJUds.jpg", "vote_count": 2, "video": false, "adult": false, "vote_average": 0.5, "original_language": "ja", "id": 357786, "genre_ids": [28, 16, 9648]}, {"poster_path": "/wNCmsqV2AhT5eHEmi1zQi1koBqi.jpg", "title": "Pandemic", "overview": "In the near future, a virus of epic proportions has overtaken the planet. There are more infected than uninfected, and humanity is losing its grip on survival. Its only hope is finding a cure and keeping the infected contained. Lauren is a doctor who, after the fall of New York, arrives in Los Angeles to lead the hunt for uncontaminated civilian survivors. But nothing can prepare her crack team for the blood-soaked mayhem they are about to witness as they head into the Californian mean streets where everything is considered a trap\u2026 From director John (THE SCRIBBLER) Suits, a boundary-crashing, game-changing science fiction thriller featuring non-stop action from a first person shooter perspective, putting the audience in the middle of every fight whilst feeling in control of every punch thrown and shot fired. Welcome to the new model of immersive action thriller for the hardcore video game generation.", "release_date": "2016-02-26", "popularity": 1.768337, "original_title": "Pandemic", "backdrop_path": "/ciARa9UXe5k10fxZYSxgwKwxStm.jpg", "vote_count": 0, "video": false, "adult": false, "vote_average": 0, "original_language": "en", "id": 346651, "genre_ids": [28]}, {"poster_path": "/iHLRePjtVOk9oIES4dg8BHEeFSC.jpg", "title": "Mellow Mud", "overview": "Siblings Roby and Raya after the death of their father and being abandoned by their mother, are forced to live with their dominating grandmother in a small country house owned by their family. Things change after the sudden death of their grandmother. The teenagers have to face a tough choice: either to report the accident and submit themselves to a life in an orphanage or hide the dead body and live as if nothing has happened.", "release_date": "2016-02-26", "popularity": 1.766079, "original_title": "Es esmu \u0161eit", "backdrop_path": "/sh3zRD6qay0FQjpKzWFxhcDAuFX.jpg", "vote_count": 1, "video": false, "adult": false, "vote_average": 4.5, "original_language": "lv", "id": 382913, "genre_ids": [18]}, {"poster_path": "/95EPON7bNq3tlSqyHgDp0re5TQt.jpg", "title": "Vanished: Left Behind - Next Generation", "overview": "If everyone suddenly vanished and you were left wondering \u201cwhy am I still here?\u201d what would you do? Where would you go? What would you believe?", "release_date": "2016-02-28", "popularity": 1.765476, "original_title": "Vanished: Left Behind - Next Generation", "backdrop_path": null, "vote_count": 0, "video": false, "adult": false, "vote_average": 0, "original_language": "en", "id": 352078, "genre_ids": [12]}, {"poster_path": "/3U3eQGOPR0kcEFGYPSQPFgb6VQB.jpg", "title": "Aligarh", "overview": "Set in the city of Uttar Pradesh and based on true events, the plot revolves around Dr Shrinivas Ramchandra Siras who taught Marathi at Aligarh Muslim University. He was sacked from his position of Reader and Chair of Modern Indian Languages, on charges of homosexuality. A sting operation was conducted by a TV channel which showed him in an embrace with a rickshaw puller, at his house inside the campus.", "release_date": "2016-02-26", "popularity": 1.7418, "original_title": "Aligarh", "backdrop_path": "/p9G49sl3J5oujZwgky6IQmSJaIi.jpg", "vote_count": 0, "video": false, "adult": false, "vote_average": 0, "original_language": "hi", "id": 370870, "genre_ids": [18]}, {"poster_path": "/xIAGW9sHRUJH9xNsIIFUPHqTJqF.jpg", "title": "The Truth Commissioner", "overview": "Set in a post-Troubles Northern Ireland, The Truth Commissioner follows the fictional story of Henry Stanfield, played by Roger Allam, a career diplomat who has just been appointed as Truth Commissioner to Northern Ireland. Eager to make good as a peacemaker, the Prime Minister urges a commission following the South African model of Truth and Reconciliation. But, though Stanfield starts bravely, he quickly uncovers some bloody and inconvenient truths about those now running the country; truths which none of those in power are prepared to have revealed.", "release_date": "2016-02-26", "popularity": 1.7372320000000001, "original_title": "The Truth Commissioner", "backdrop_path": null, "vote_count": 0, "video": false, "adult": false, "vote_average": 0, "original_language": "en", "id": 382993, "genre_ids": [18]}, {"poster_path": null, "title": "Echo From The Past", "overview": "A young veteran recalls his days in the war, reviving dark memories from his past.", "release_date": "2016-02-26", "popularity": 1.667483, "original_title": "Echo From The Past", "backdrop_path": null, "vote_count": 0, "video": false, "adult": false, "vote_average": 0, "original_language": "en", "id": 381839, "genre_ids": [80, 18, 53]}, {"poster_path": "/lMACUFsniFcdfczSWWhR8gvtnyW.jpg", "title": "Rain In The Town", "overview": "Story of a man whom the police is after constantly since he's responsible for the disappearance of some famous men of the town.", "release_date": "2016-02-27", "popularity": 1.66612, "original_title": "Rain In The Town", "backdrop_path": "/33wSGHnbuSRSImUcIdxVlD9lRKi.jpg", "vote_count": 0, "video": false, "adult": false, "vote_average": 0, "original_language": "en", "id": 384037, "genre_ids": [53, 28]}]}