{"total_results": 42, "total_pages": 3, "page": 1, "results": [{"origin_country": ["US"], "poster_path": "/lUFK7ElGCk9kVEryDJHICeNdmd1.jpg", "name": "The Flash", "overview": "After a particle accelerator causes a freak storm, CSI Investigator Barry Allen is struck by lightning and falls into a coma. Months later he awakens with the power of super speed, granting him the ability to move through Central City like an unseen guardian angel. Though initially excited by his newfound powers, Barry is shocked to discover he is not the only \"meta-human\" who was created in the wake of the accelerator explosion -- and not everyone is using their new powers for good. Barry partners with S.T.A.R. Labs and dedicates his life to protect the innocent. For now, only a few close friends and associates know that Barry is literally the fastest man alive, but it won't be long before the world learns what Barry Allen has become...The Flash.", "popularity": 21.356675, "original_name": "The Flash", "backdrop_path": "/9NzRllYCJyvn8SUnif6HyHPvLNH.jpg", "vote_average": 7.7, "vote_count": 132, "first_air_date": "2014-10-07", "genre_ids": [28, 12, 18, 878], "id": 60735, "original_language": "en"}, {"origin_country": ["US"], "poster_path": "/n82soKV5XS5iYXF60eDO84kLPF3.jpg", "name": "Marvel's Agents of S.H.I.E.L.D.", "overview": "Agent Phil Coulson of S.H.I.E.L.D. (Strategic Homeland Intervention, Enforcement and Logistics Division) puts together a team of agents to investigate the new, the strange and the unknown around the globe, protecting the ordinary from the extraordinary.", "popularity": 15.305061, "original_name": "Marvel's Agents of S.H.I.E.L.D.", "backdrop_path": "/jOrfoGipT8QoDi54Qd9f5yhJCgw.jpg", "vote_average": 7.1, "vote_count": 107, "first_air_date": "2013-09-24", "genre_ids": [14, 18, 28, 12, 878], "id": 1403, "original_language": "en"}, {"origin_country": ["US"], "poster_path": "/tZlqGXWGzEJNRl9QCCUN8ioSv2D.jpg", "name": "The Daily Show with Trevor Noah", "overview": "The Daily Show is an American late night satirical television program airing each Monday through Thursday on Comedy Central and, in Canada, The Comedy Network. Describing itself as a fake news program, The Daily Show draws its comedy and satire from recent news stories, political figures, media organizations, and often, aspects of the show itself.", "popularity": 12.751153, "original_name": "The Daily Show with Trevor Noah", "backdrop_path": "/hcBEsdecM1PjlP7ms5v8DAupURm.jpg", "vote_average": 7.7, "vote_count": 15, "first_air_date": "1996-07-22", "genre_ids": [10763, 35], "id": 2224, "original_language": "en"}, {"origin_country": ["US"], "poster_path": "/xn3QM6aInhQp631K2lXpGFox2Kc.jpg", "name": "iZombie", "overview": "A medical student who becomes a zombie joins a Coroner's Office in order to gain access to the brains she must reluctantly eat so that she can maintain her humanity. But every brain she eats, she also inherits their memories and must now solve their deaths with help from the Medical examiner and a police detective.", "popularity": 10.658172, "original_name": "iZombie", "backdrop_path": "/d2YDPTQPe3mI2LqBWwb0CchN54f.jpg", "vote_average": 6.5, "vote_count": 28, "first_air_date": "2015-03-17", "genre_ids": [27, 18, 80, 10765], "id": 60866, "original_language": "en"}, {"origin_country": ["US"], "poster_path": "/9e3A3bHh0gW7qs3bKS6vYO8dXjx.jpg", "name": "Scream Queens", "overview": "Scream Queens is an anthology series revolving around two female leads each season. The first season focuses on activity at a college campus rocked by a series of murders.", "popularity": 8.299368, "original_name": "Scream Queens", "backdrop_path": "/mlChBJ8Y4rvbvV7Sw3uiTY6i0Je.jpg", "vote_average": 6.3, "vote_count": 5, "first_air_date": "2015-09-22", "genre_ids": [35, 27], "id": 62046, "original_language": "en"}, {"origin_country": ["US"], "poster_path": "/sAeZrFHyACdj8TDDLOvXtShwpFy.jpg", "name": "Wicked City", "overview": "\u201cWicked City\u201d follows a unique case set in a noteworthy era of L.A. history, starting with a murder case from 1982 centered on the rock \u2019n\u2019 roll, cocaine-infused revelry of the Sunset Strip. Alliances are formed to solve a serial murder case.", "popularity": 8.509111, "original_name": "Wicked City", "backdrop_path": "/ki5v5OXPqHWOV2QwDEkXh0Z7Ctq.jpg", "vote_average": 5.3, "vote_count": 2, "first_air_date": "2015-10-27", "genre_ids": [18], "id": 62927, "original_language": "en"}, {"origin_country": ["US"], "poster_path": "/kd1lODKq9ehIYeMBKfrtwdq7Rki.jpg", "name": "Manhattan", "overview": "Set against the backdrop of the greatest clandestine race against time in the history of science with the mission to build the world's first atomic bomb in Los Alamos, New Mexico. Flawed scientists and their families attempt to co-exist in a world where secrets and lies infiltrate every aspect of their lives.", "popularity": 7.912111, "original_name": "Manhattan", "backdrop_path": "/hUrQL8gwgIBv2LrxjObQs9kmOUy.jpg", "vote_average": 7.6, "vote_count": 13, "first_air_date": "2014-07-27", "genre_ids": [10768, 18], "id": 61112, "original_language": "en"}, {"origin_country": ["US"], "poster_path": "/ieXc6ryp53DGOv9X3PFhTvTtLau.jpg", "name": "Limitless", "overview": "Limitless, based on the feature film, is a fast-paced drama about Brian Finch, who discovers the brain-boosting power of the mysterious drug NZT and is coerced by the FBI into using his extraordinary cognitive abilities to solve complex cases for them. Working closely with Brian in the major case squad in New York City is Special Agent Rebecca Harris, a formidable investigator with a dark past, and Special Agent Boyle, a former military officer and Rebecca\u2019s confidante. They report to Special Agent in Charge Nasreen \u201cNaz\u201d Pouran, a canny manipulator of the reins of power. Unbeknownst to the FBI, Brian also has a clandestine relationship with Senator Edward Mora, a presidential hopeful and regular user of NZT who has plans of his own for his new prot\u00e9g\u00e9. Fueled now with a steady supply of NZT that enables him to use 100% of his brain capacity, Brian is more effective than all of the FBI agents combined, making him a criminal\u2019s worst nightmare and the greatest asset the Bureau has ever possessed.", "popularity": 7.172838, "original_name": "Limitless", "backdrop_path": "/3qC6Kny3p55ulSLo5R5ainfIdpG.jpg", "vote_average": 6.8, "vote_count": 16, "first_air_date": "2015-09-22", "genre_ids": [18, 878, 53], "id": 62687, "original_language": "en"}, {"origin_country": ["US"], "poster_path": "/a8s59EhuEX3NyKMo5D5VExttCeO.jpg", "name": "Chicago Fire", "overview": "An edge-of-your-seat view into the lives of everyday heroes committed to one of America's noblest professions. For the firefighters, rescue squad and paramedics of Chicago Firehouse 51, no occupation is more stressful or dangerous, yet so rewarding and exhilarating. These courageous men and women are among the elite who forge headfirst into danger when everyone else is running the other way and whose actions make the difference between life and death.", "popularity": 5.06352, "original_name": "Chicago Fire", "backdrop_path": "/gdsAOlsL3t9yIvq0ma2OgZFYBRB.jpg", "vote_average": 7.5, "vote_count": 13, "first_air_date": "2012-10-10", "genre_ids": [18], "id": 44006, "original_language": "en"}, {"origin_country": ["KR"], "poster_path": "/bufiiF4a8nqyl1hZZBJ4JxDVqSx.jpg", "name": "Bubblegum", "overview": "Four people whose lives revolve around a hospital and a radio station become close and work out their various problems together.", "popularity": 5.693804, "original_name": "\ud48d\uc120\uaecc", "backdrop_path": "/AiUQAxpj6UhoMJFNONf8Bm94HOy.jpg", "vote_average": 9.0, "vote_count": 1, "first_air_date": "2015-10-26", "genre_ids": [18, 10749], "id": 64061, "original_language": "ko"}, {"origin_country": ["US"], "poster_path": "/50NcX6bcTJuzUCWXDFp40c1sybI.jpg", "name": "The Mindy Project", "overview": "The Mindy Project is an American series that follows obstetrician/gynecologist Mindy Lahiri as she tries to balance her personal and professional life, surrounded by quirky co-workers in a small medical practice in New York City.", "popularity": 4.726775, "original_name": "The Mindy Project", "backdrop_path": "/zUkxJHjTfcugL0LxnG8MRY1DLfK.jpg", "vote_average": 5.3, "vote_count": 11, "first_air_date": "2012-09-25", "genre_ids": [35], "id": 44857, "original_language": "en"}, {"origin_country": ["US"], "poster_path": "/cl5PWdyNypvQdrkoCDWiEq7jbPD.jpg", "name": "Cops", "overview": "Cops is an American documentary/reality legal series that follows police officers, constables, and sheriff's deputies during patrols and other police activities. It is one of the longest-running television programs in the United States and in May 2011 became the longest-running show on Fox with the announcement that America's Most Wanted was being canceled after 23 years. The first episode was broadcast in 1989.\n\nCreated by John Langley and Malcolm Barbour, it premiered on March 11, 1989, and is scheduled to air its 850th episode during the 2012-2013 season. It won the American Television Award in 1993 and has earned four Emmy nominations. COPS' 25th season began on December 15, 2012. The series is currently one of only two remaining first-run prime-time programs airing on Saturday nights on the four major U.S. broadcast television networks along with CBS's 48 Hours Mystery. When it expanded to show two episodes in the 8PM hour, it was called Primetime Cops in promos for several years.\n\nCops is broadcast by Fox, and follows the activities of police officers by embedding camera crews with police units. The show's formula follows the cin\u00e9ma v\u00e9rit\u00e9 convention, with no narration or scripted dialog, depending entirely on the commentary of the officers and on the actions of the people with whom they come into contact.", "popularity": 3.930058, "original_name": "Cops", "backdrop_path": "/phSgdqpWCv6fEBvvizBNTO7w88D.jpg", "vote_average": 5.2, "vote_count": 3, "first_air_date": "1988-03-11", "genre_ids": [10764], "id": 3670, "original_language": "en"}, {"origin_country": ["US"], "poster_path": "/uh83s3uQjmTevLDd9tgzO05JmS9.jpg", "name": "The Muppets", "overview": "The Muppets return to primetime with a contemporary, documentary-style show. For the first time ever, a series will explore the Muppets\u2019 personal lives and relationships, both at home and at work, as well as romances, breakups, achievements, disappointments, wants and desires. This is a more adult Muppet show, for \u201ckids\u201d of all ages.", "popularity": 3.668854, "original_name": "The Muppets", "backdrop_path": "/lJxVuYdpTCE6gEBBEqKi88bFC3w.jpg", "vote_average": 8.0, "vote_count": 3, "first_air_date": "2015-09-22", "genre_ids": [35], "id": 62815, "original_language": "en"}, {"origin_country": ["GB"], "poster_path": "/neVrSRyQXTjZTe6himbh1gXXigx.jpg", "name": "River", "overview": "Respected police officer John River, a gifted cop with a troubled mind, struggles to come to terms with the recent loss of a close colleague, and chases a potential suspect across London - with tragic consequences. Now at odds with authorities both within and outside of the police service, River finds himself in a precarious position as he seeks to bring closure to the mother of murdered teenager Erin Fielding, who blames him for failing to keep his promise to bring her daughter back alive.", "popularity": 3.614771, "original_name": "River", "backdrop_path": "/e2M7jKkYptXXWj6NUwked4qoUnk.jpg", "vote_average": 8.3, "vote_count": 2, "first_air_date": "2015-10-13", "genre_ids": [80], "id": 64158, "original_language": "en"}, {"origin_country": ["BE", "FR", "DE", "US"], "poster_path": "/agUj85dfcyAstInOzHa6bQGI2gp.jpg", "name": "Crossing Lines", "overview": "Through globalization, many countries have been opened and barriers removed to ensure easy trade, travel and cultural diversity. However, this openness has given opportunities to criminals looking to exploit the system and ultimately threaten our global safety. As Europe has become a \"safe house\" for criminals eluding law enforcers, a special kind of law enforcement team is needed to handle specific ongoing crimes on a global level. \"Crossing Lines\" is the story of one such team, made up of five international cops, headed by Captain Daniel. The team - comprised of individuals who have little in common - must learn to live and work under the most dangerous and potentially deadly conditions. Housed in an unused storage section underneath the ICC, this mismatched team faces bureaucratic, jurisdictional and cultural obstacles while traversing continents in pursuit of justice.", "popularity": 2.233465, "original_name": "Crossing Lines", "backdrop_path": "/buySROfEWDFerqifesuWhPZ8Soi.jpg", "vote_average": 6.7, "vote_count": 8, "first_air_date": "2013-08-22", "genre_ids": [18, 10759, 80], "id": 46975, "original_language": "en"}, {"origin_country": ["KR"], "poster_path": "/ffiQMtDN3D3jsEp6mhtB8vrYOrJ.jpg", "name": "Sassy Go Go", "overview": "Despite their harsh educational environment, the cheerleading club has to keep it together for the students' sakes, and their own.", "popularity": 3.23219, "original_name": "\ubc1c\uce59\ud558\uac8c \uace0\uace0", "backdrop_path": "/3zFn8QaxYwIwgBXtB2w6GGqu2SW.jpg", "vote_average": 9.0, "vote_count": 1, "first_air_date": "2015-10-05", "genre_ids": [18, 35, 10749], "id": 63990, "original_language": "ko"}, {"origin_country": ["US"], "poster_path": "/5fdhA3YGfcXj15o3VsIyhJ5bkzw.jpg", "name": "Finding Carter", "overview": "A teenager finds out she was abducted as a toddler and returns to her biological family.", "popularity": 3.019669, "original_name": "Finding Carter", "backdrop_path": "/oFraMOQJcGUM79BRQSn2drK01zK.jpg", "vote_average": 5.1, "vote_count": 9, "first_air_date": "2014-07-08", "genre_ids": [18], "id": 61135, "original_language": "en"}, {"origin_country": ["US"], "poster_path": "/935N2RYxDLgv7JhEl1cNrqPCPMk.jpg", "name": "Tosh.0", "overview": "Tosh.0 is an American television series hosted by comedian Daniel Tosh, who provides commentary on online video clips, society, celebrities, and other parts of popular culture and stereotypes.", "popularity": 2.965884, "original_name": "Tosh.0", "backdrop_path": "/dRYFnHSeCpNmB6Mx6FaxAA2L7m2.jpg", "vote_average": 6.3, "vote_count": 3, "first_air_date": "2009-06-04", "genre_ids": [35], "id": 18014, "original_language": "en"}, {"origin_country": ["US"], "poster_path": "/aqudXaKhkArByDc88hC0akwwxP7.jpg", "name": "The Nightly Show with Larry Wilmore", "overview": "The Nightly Show provides viewers with Larry Wilmore's distinct point of view and comedic take on current events and pop culture. Hosted by Wilmore, the series features a diverse panel of voices, providing a perspective largely missing in the late night television landscape.", "popularity": 2.875468, "original_name": "The Nightly Show with Larry Wilmore", "backdrop_path": "/xUSgAkFRkouhA9a7FRyh5Amz8OM.jpg", "vote_average": 7.0, "vote_count": 1, "first_air_date": "2015-01-19", "genre_ids": [10767, 35, 10763], "id": 61587, "original_language": "en"}, {"origin_country": ["US"], "poster_path": "/u7WzXQElm6m7SeZ61axpDUUwspP.jpg", "name": "The Grinder", "overview": "Television lawyer Dean Sanderson moves back to his small home town after his hit series, \"The Grinder,\" is canceled thinking his time on TV qualifies him to run his family's law firm.", "popularity": 2.484345, "original_name": "The Grinder", "backdrop_path": "/cq6ufpcURvaKn9xeGOMog6KCCwB.jpg", "vote_average": 4.0, "vote_count": 1, "first_air_date": "2015-09-29", "genre_ids": [35], "id": 63509, "original_language": "en"}]}