{"alternative_titles": {"results": []}, "poster_path": "/4ukKkwZWDSCxdXKBWUEfLSuHWmS.jpg", "videos": {"results": [{"name": "Making A Murderer - Trailer - Netflix", "site": "YouTube", "iso_639_1": "en", "key": "qxgbdYaR_KQ", "type": "Trailer", "id": "5692370892514115ce0019fc", "size": 1080}]}, "overview": "Set in America\u0092s Heartland, Making a Murderer follows the harrowing story of Steven Avery, an outsider from the wrong side of the tracks, convicted and later exonerated of a brutal assault. His release triggered major criminal justice reform legislation, and he filed a lawsuit that threatened to expose corruption in local law enforcement and award him millions of dollars. But in the midst of his very public civil case, he suddenly finds himself the prime suspect in a grisly new crime.", "keywords": {"results": [{"id": 378, "name": "prison"}, {"id": 220929, "name": "criminal justice"}, {"id": 417, "name": "corruption"}, {"id": 13112, "name": "murderer"}, {"id": 11038, "name": "trial"}, {"id": 157107, "name": "court trial"}, {"id": 2024, "name": "wisconsin"}, {"id": 18219, "name": "corrupt cop"}, {"id": 221133, "name": "corrupt sheriff"}, {"id": 9748, "name": "revenge"}, {"id": 41345, "name": "teenager"}, {"id": 2620, "name": "evidence"}, {"id": 177673, "name": "wrecking yard"}]}, "content_ratings": {"results": [{"iso_3166_1": "GB", "rating": "15"}, {"iso_3166_1": "US", "rating": "TV-14"}]}, "type": "Documentary", "images": {"backdrops": [{"width": 2000, "iso_639_1": null, "height": 1125, "vote_average": 0.0, "vote_count": 0, "aspect_ratio": 1.77777777777778, "file_path": "/5z8Uc48UohWfy0aWP70cKkZEe4j.jpg"}, {"width": 2048, "iso_639_1": null, "height": 1152, "vote_average": 0.0, "vote_count": 0, "aspect_ratio": 1.77777777777778, "file_path": "/mtQn50yW46b8biGf44Fe6RliYU0.jpg"}], "posters": [{"width": 1500, "iso_639_1": "en", "height": 2250, "vote_average": 5.3030303030303, "vote_count": 3, "aspect_ratio": 0.666666666666667, "file_path": "/4ukKkwZWDSCxdXKBWUEfLSuHWmS.jpg"}, {"width": 1500, "iso_639_1": "en", "height": 2250, "vote_average": 5.21645021645022, "vote_count": 3, "aspect_ratio": 0.666666666666667, "file_path": "/acjSUfL2lMzT8Kyuw8h4oruwqtl.jpg"}]}, "networks": [{"id": 213, "name": "Netflix"}], "genres": [{"id": 99, "name": "Documentary"}], "original_name": "Making a Murderer", "created_by": [{"profile_path": null, "id": 1552659, "name": "Moira Demos"}, {"profile_path": null, "id": 1552660, "name": "Laura Ricciardi"}], "id": 64439, "languages": ["en"], "vote_count": 7, "number_of_seasons": 1, "episode_run_time": [60], "number_of_episodes": 9, "original_language": "en", "status": "Returning Series", "last_air_date": "2015-12-18", "origin_country": [], "translations": {"translations": [{"iso_639_1": "en", "english_name": "English", "name": "English"}, {"iso_639_1": "de", "english_name": "German", "name": "Deutsch"}, {"iso_639_1": "fr", "english_name": "French", "name": "Fran\u00e7ais"}, {"iso_639_1": "es", "english_name": "Spanish", "name": "Espa\u00f1ol"}]}, "credits": {"cast": [{"name": "Steven Avery", "character": "Himself", "order": 1, "credit_id": "567fffa19251414f63006411", "profile_path": null, "id": 1554281}], "crew": [{"name": "Moira Demos", "department": "Editing", "job": "Editor", "credit_id": "567a0bc692514106f5000c08", "profile_path": null, "id": 1552659}, {"name": "Laura Ricciardi", "department": "Writing", "job": "Writer", "credit_id": "567a0be9c3a3685bd2000b6a", "profile_path": null, "id": 1552660}, {"name": "Moira Demos", "department": "Writing", "job": "Writer", "credit_id": "567a0bb192514106fc000b5d", "profile_path": null, "id": 1552659}, {"name": "Moira Demos", "department": "Directing", "job": "Director", "credit_id": "567a0b9e92514106f9000b9c", "profile_path": null, "id": 1552659}, {"name": "Moira Demos", "department": "Camera", "job": "Director of Photography", "credit_id": "567a0bb7c3a3685bbc000cb4", "profile_path": null, "id": 1552659}, {"name": "Moira Demos", "department": "Production", "job": "Executive Producer", "credit_id": "567a0bcc92514106e8000bd1", "profile_path": null, "id": 1552659}, {"name": "Laura Ricciardi", "department": "Directing", "job": "Director", "credit_id": "567a0be3c3a3685bdf000baf", "profile_path": null, "id": 1552660}, {"name": "Laura Ricciardi", "department": "Production", "job": "Executive Producer", "credit_id": "567a0bf292514106ef000b42", "profile_path": null, "id": 1552660}, {"name": "Adam Del Deo", "department": "Production", "job": "Executive Producer", "credit_id": "567a0bfec3a3685bb6000abe", "profile_path": null, "id": 62795}, {"name": "Lisa Nishimura", "department": "Production", "job": "Executive Producer", "credit_id": "567a0c0c92514106f1000c1a", "profile_path": null, "id": 1373056}, {"name": "Danielle Ricciardi", "department": "Production", "job": "Associate Producer", "credit_id": "567a0c1b92514106e5000c2e", "profile_path": null, "id": 1552661}, {"name": "Joel Slabaugh", "department": "Production", "job": "Associate Producer", "credit_id": "567a0c2792514106f1000c1f", "profile_path": null, "id": 1552662}]}, "in_production": true, "first_air_date": "2015-12-18", "seasons": [{"season_number": 1, "poster_path": null, "id": 72039, "episode_count": 10, "air_date": "2015-12-18"}], "external_ids": {"freebase_id": "", "tvdb_id": 303210, "tvrage_id": null, "freebase_mid": "", "imdb_id": "tt5189670"}, "backdrop_path": "/mtQn50yW46b8biGf44Fe6RliYU0.jpg", "production_companies": [{"name": "Netflix", "id": 59811}], "name": "Making a Murderer", "homepage": "http://www.netflix.com/title/80000770", "popularity": 4.098486, "vote_average": 8.2, "similar": {"total_results": 58, "total_pages": 3, "page": 1, "results": [{"origin_country": ["US"], "poster_path": "/38KlJOm67KyZqT9ZcBSsmET04HG.jpg", "name": "Prison Break", "overview": "Prison Break is an American television serial drama created by Paul Scheuring, that was broadcast on Fox for four seasons, from 2005 until 2009. The series revolves around two brothers; one has been sentenced to death for a crime he did not commit, and the other devises an elaborate plan to help his brother escape prison. The series was produced by Adelstein-Parouse Productions, in association with Original Television and 20th Century Fox Television. Along with creator Paul Scheuring, the series is executive produced by Matt Olmstead, Kevin Hooks, Marty Adelstein, Dawn Parouse, Neal H. Moritz, and Brett Ratner who directed the pilot episode. The series' theme music, composed by Ramin Djawadi, was nominated for a Primetime Emmy Award in 2006.\n\nThe series was originally turned down by Fox in 2003, which was concerned about the long-term prospects of such a series. Following the popularity of serialized prime time television series Lost and 24, Fox decided to back production in 2004. The first season received generally positive reviews, and performed well in the ratings. The first season was originally planned for a 13-episode run, but was extended to include an extra nine episodes due to its popularity. Prison Break was nominated for several industry awards, and won the 2006 People's Choice Award for Favorite New TV Drama and was nominated for the 2005 Golden Globe Award for Best Television Series Drama. In the United States, all four seasons have been released on DVD, while the first and third seasons and The Final Break have also been released on Blu-ray Disc. The series has been aired and all seasons have been released on Blu-ray internationally.", "popularity": 6.210929, "original_name": "Prison Break", "backdrop_path": "/tVCmhoIAHMCIzNmzSBvSDja4wOY.jpg", "vote_average": 7.7, "vote_count": 104, "first_air_date": "2005-08-29", "genre_ids": [28, 18, 53, 9648, 80], "id": 2288, "original_language": "en"}, {"origin_country": ["US"], "poster_path": "/6AquMx9MoJZTaZIR2AokSDATFCt.jpg", "name": "House of Cards", "overview": "Set in present day Washington, D.C., House of Cards is the story of Frank Underwood, a ruthless and cunning politician, and his wife Claire who will stop at nothing to conquer everything. This wicked political drama penetrates the shadowy world of greed, sex and corruption in modern D.C. \n\nHouse of Cards is an adaptation of a previous BBC miniseries of the same name, which is based on the novel by Michael Dobbs.", "popularity": 5.302986, "original_name": "House of Cards", "backdrop_path": "/3RognQsjLyE50cy5VMo28auGe9q.jpg", "vote_average": 7.8, "vote_count": 119, "first_air_date": "2013-02-01", "genre_ids": [18, 53], "id": 1425, "original_language": "en"}, {"origin_country": ["JP"], "poster_path": "/cD4FiJNvwr83ldF6HvdAXD1pTJ2.jpg", "name": "Naruto Shipp\u016bden", "overview": "Naruto Shippuuden is the continuation of the original animated TV series Naruto.The story revolves around an older and slightly more matured Uzumaki Naruto and his quest to save his friend Uchiha Sasuke from the grips of the snake-like Shinobi, Orochimaru. After 2 and a half years Naruto finally returns to his village of Konoha, and sets about putting his ambitions to work, though it will not be easy, as He has amassed a few (more dangerous) enemies, in the likes of the shinobi organization; Akatsuki.", "popularity": 4.95376, "original_name": "Naruto Shipp\u016bden", "backdrop_path": "/l6dniTn36DSI1YpP8D1jg2n0HCc.jpg", "vote_average": 7.7, "vote_count": 20, "first_air_date": "2007-02-15", "genre_ids": [18, 12, 16, 35, 14, 28], "id": 31910, "original_language": "ja"}, {"origin_country": ["US"], "poster_path": "/oLKRqLGUkjNFRVG6naFaAWNXfmf.jpg", "name": "Revenge", "overview": "Revenge is an American television primetime soap opera that airs on ABC, starring Madeleine Stowe and Emily VanCamp, which debuted on September 21, 2011.", "popularity": 3.732539, "original_name": "Revenge", "backdrop_path": "/gR8uQ5u3zrqf1fXA4HvoZHsgtdk.jpg", "vote_average": 6.7, "vote_count": 36, "first_air_date": "2011-09-21", "genre_ids": [9648, 18], "id": 39358, "original_language": "en"}, {"origin_country": ["US"], "poster_path": "/o5CdzIeF1tZ2OMsDEfR5iAnRjvd.jpg", "name": "Buffy the Vampire Slayer", "overview": "Buffy the Vampire Slayer is an American television series which aired from March 10, 1997 until May 20, 2003. The series was created in 1997 by writer-director Joss Whedon under his production tag, Mutant Enemy Productions with later co-executive producers being Jane Espenson, David Fury, David Greenwalt, Doug Petrie, Marti Noxon, and David Solomon. The series narrative follows Buffy Summers, the latest in a line of young women known as \"Vampire Slayers\" or simply \"Slayers\". In the story, Slayers are \"called\" to battle against vampires, demons, and other forces of darkness. Like previous Slayers, Buffy is aided by a Watcher, who guides, teaches, and trains her. Unlike her predecessors, Buffy surrounds herself with a circle of loyal friends who become known as the \"Scooby Gang\".", "popularity": 4.294389, "original_name": "Buffy the Vampire Slayer", "backdrop_path": "/jEcm87wgNvWHPodiZNk5Bf3KdV4.jpg", "vote_average": 8.0, "vote_count": 47, "first_air_date": "1997-03-10", "genre_ids": [28, 35, 18, 14], "id": 95, "original_language": "en"}, {"origin_country": ["US"], "poster_path": "/x7a2pcqDeFx2KjecOkDMFBnxZ2a.jpg", "name": "Orange Is the New Black", "overview": "A crime she committed in her youthful past sends Piper Chapman to a women's prison, where she trades her comfortable New York life for one of unexpected camaraderie and conflict in an eccentric group of fellow inmates.", "popularity": 3.691632, "original_name": "Orange Is the New Black", "backdrop_path": "/5lW1fcWpx89dibAFfdGNlcvkdV8.jpg", "vote_average": 7.3, "vote_count": 73, "first_air_date": "2013-07-11", "genre_ids": [35, 18], "id": 1424, "original_language": "en"}, {"origin_country": ["US"], "poster_path": "/r81WquZdiitKwmujUiZ7cCdpx2o.jpg", "name": "American Crime", "overview": "An anthology drama focusing on all aspects of the U.S. criminal justice system dealing with crimes committed in America.", "popularity": 3.279649, "original_name": "American Crime", "backdrop_path": "/xQP4L7sw3UrdVW8yTofkxERkZxg.jpg", "vote_average": 5.3, "vote_count": 5, "first_air_date": "2015-03-05", "genre_ids": [18, 80, 9648], "id": 60791, "original_language": "en"}, {"origin_country": ["US"], "poster_path": "/6VOtRgAAT4fDdEfHZDT3LmFjjGO.jpg", "name": "Arrested Development", "overview": "Arrested Development is an American television sitcom that follows the fictitious Bluth family, a formerly wealthy and habitually dysfunctional family that is presented in a continuous format, incorporating handheld camera work, narration, archival photos, and historical footage.", "popularity": 2.769765, "original_name": "Arrested Development", "backdrop_path": "/hYfTFcrVjZoX6QVzIG6rLafRhiZ.jpg", "vote_average": 7.6, "vote_count": 41, "first_air_date": "2003-11-02", "genre_ids": [35], "id": 4589, "original_language": "en"}, {"origin_country": ["US"], "poster_path": "/eK7VZISZ69HtLtMqIk60qIkz8lJ.jpg", "name": "Oz", "overview": "Oz is an American television drama series created by Tom Fontana, who also wrote or co-wrote all of the series' 56 episodes. It was the first one-hour dramatic television series to be produced by the premium cable network HBO. Oz premiered on July 12, 1997 and ran for six seasons. The series finale aired February 23, 2003.", "popularity": 1.419176, "original_name": "Oz", "backdrop_path": "/7cZAvLiOMrasMsqB6Wrt6thLn6E.jpg", "vote_average": 7.9, "vote_count": 16, "first_air_date": "1997-07-12", "genre_ids": [18], "id": 3322, "original_language": "en"}, {"origin_country": ["US"], "poster_path": "/g79yIqJMD99EykO35IoRQXRHVZX.jpg", "name": "Murder in the First", "overview": "Murder in the First follows homicide detectives Terry English and Hildy Mulligan as they investigate two seemingly unrelated murders. The mystery deepens, however, when they find both murders have a common denominator in a Silicon Valley wunderkind.", "popularity": 1.200697, "original_name": "Murder in the First", "backdrop_path": "/m387f5BgtTrRH8WwyzHOsC66Zuu.jpg", "vote_average": 5.0, "vote_count": 13, "first_air_date": "2014-06-09", "genre_ids": [9648, 18, 80], "id": 60129, "original_language": "en"}, {"origin_country": ["US"], "poster_path": "/6x4GEInLnldW5Wu0AGUlsp1CGJR.jpg", "name": "Hand of God", "overview": "A morally corrupt judge suffers a breakdown and believes that God is speaking directly to him, compelling him onto a path of vigilante justice.", "popularity": 1.904566, "original_name": "Hand of God", "backdrop_path": "/pjXZmmvw12uryHh8m4XHcZNvd5W.jpg", "vote_average": 7.5, "vote_count": 5, "first_air_date": "2014-08-28", "genre_ids": [18], "id": 61263, "original_language": "en"}, {"origin_country": ["US"], "poster_path": "/l9BvSEqhCUSby1lCS0g2c3HGcFE.jpg", "name": "The Bastard Executioner", "overview": "A blood-soaked, medieval epic that tells the story of Wilkin Brattle, a 14th century warrior, whose life is forever changed when a divine messenger beseeches him to lay down his sword and lead the life of another man: a journeyman executioner. Set in northern Wales during a time rife with rebellion and political upheaval, Wilkin must walk a tight rope between protecting his true identity while also serving a mysterious destiny.\n\nGuided by Annora, a mystical healer whose seeming omniscience keeps Wilkin under her sway; manipulated by Milus Corbett, a devious Chamberlain with grand political aspirations; and driven by a deepening connection with the Baroness Lady Love, Wilkin struggles to navigate political, emotional and supernal pitfalls in his quest to understand his greater purpose.", "popularity": 1.853906, "original_name": "The Bastard Executioner", "backdrop_path": "/jfF1XiDWBJQQtg2bo9QkYhC2ET1.jpg", "vote_average": 5.4, "vote_count": 9, "first_air_date": "2015-09-15", "genre_ids": [18], "id": 63349, "original_language": "en"}, {"origin_country": ["ES"], "poster_path": "/tsIR19likkZIgGSJfEMTDE4R4cs.jpg", "name": "Vis a Vis", "overview": null, "popularity": 1.663626, "original_name": "Vis a Vis", "backdrop_path": "/c3kwn5syVGrESh7lWcjL3G3RTix.jpg", "vote_average": 8.0, "vote_count": 1, "first_air_date": "2015-04-20", "genre_ids": [18, 53], "id": 62455, "original_language": "es"}, {"origin_country": ["AU"], "poster_path": "/3iCxWUCrsaxtrn1LZToeYw4WtOP.jpg", "name": "Wentworth", "overview": "Wentworth is an Australian television drama series. It was first broadcast on SoHo on 1 May 2013. The series serves as a contemporary reimagining of Prisoner, which ran on Network Ten from 1979 to 1986. Lara Radulovich and David Hannam developed Wentworth from Reg Watson's original concept. The series is set in the modern day and centres on Bea Smith's early days in prison. Wentworth is filmed on a purpose built set in the suburb of Clayton. It has received a mostly positive reception from critics and the first episode became the most watched Australian drama series premiere in Foxtel history. The series was picked up by several countries, including New Zealand and the UK, where it has been retitled Wentworth Prison. The series 3rd season started 7 April 2015.", "popularity": 1.760989, "original_name": "Wentworth", "backdrop_path": "/oN0euWWsrqDi0e90ZXJ966OT1OD.jpg", "vote_average": 5.3, "vote_count": 7, "first_air_date": "2013-05-01", "genre_ids": [18], "id": 44856, "original_language": "en"}, {"origin_country": ["CA"], "poster_path": "/6NKasqr5YWuibxVOYQsqJrDBE0V.jpg", "name": "Ready or Not", "overview": "Ready or Not is a Canadian teen drama series which aired on the Showtime Movie Channel and later on the Disney Channel and Global Television Network for 5 seasons and 65 episodes between 1993 and 1997 in both Canada and the United States.", "popularity": 1.716302, "original_name": "Ready or Not", "backdrop_path": "/wTpxvaqekUHcSO5ENGqtmld1IRO.jpg", "vote_average": 0.0, "vote_count": 0, "first_air_date": "1993-01-01", "genre_ids": [10751, 18], "id": 9765, "original_language": "en"}, {"origin_country": ["US"], "poster_path": "/475QWbNOXZiz7DfIfMP9WIpBpTX.jpg", "name": "The Wonder Years", "overview": "The Wonder Years is an American television comedy-drama created by Neal Marlens and Carol Black. It ran on ABC from 1988 through 1993. The pilot aired on January 31, 1988, following ABC's coverage of Super Bowl XXII.\n\nThe show achieved a spot in the Nielsen Top Thirty for four of its six seasons. TV Guide named the show one of the 20 best of the 1980s. After only six episodes aired, The Wonder Years won an Emmy for best comedy series in 1988. In addition, at age 13, Fred Savage became the youngest actor ever nominated as Outstanding Lead Actor for a Comedy Series. The show was also awarded a Peabody Award in 1989, for pushing the boundaries of the sitcom format and using new modes of storytelling. The series won 22 awards and was nominated for 54 more. In 1997, \"My Father's Office\" was ranked #29 on TV Guide's 100 Greatest Episodes of All Time, and in the 2009 revised list the pilot episode was ranked #43. The TV show is named after the band, The Wonder Years.", "popularity": 1.6056, "original_name": "The Wonder Years", "backdrop_path": "/iN22yYBgjDIO5wouB9bTiG07G2J.jpg", "vote_average": 6.5, "vote_count": 7, "first_air_date": "1988-01-31", "genre_ids": [35, 18, 10749], "id": 4500, "original_language": "en"}, {"origin_country": ["CZ"], "poster_path": "/Ae6N5ZxABPlekbHuJzIxBP5FtQq.jpg", "name": "Holky pod z\u00e1mkem", "overview": null, "popularity": 1.544541, "original_name": "Holky pod z\u00e1mkem", "backdrop_path": null, "vote_average": 0.0, "vote_count": 0, "first_air_date": "2015-01-13", "genre_ids": [10764], "id": 61983, "original_language": "cs"}, {"origin_country": ["US"], "poster_path": null, "name": "Cain's Hundred", "overview": "Cain's Hundred is an American crime drama series that aired on NBC from 1961 to 1962. The series was produced by Vanadas Productions, Inc. in association with MGM Television.", "popularity": 0.525659, "original_name": "Cain's Hundred", "backdrop_path": null, "vote_average": 0.0, "vote_count": 0, "first_air_date": "1961-09-19", "genre_ids": [18], "id": 383, "original_language": "en"}, {"origin_country": ["US"], "poster_path": "/wsuZVbmfgiFMffimIySp7lLK8pu.jpg", "name": "VICE", "overview": "Vice is a documentary TV-series created and hosted by Shane Smith of Vice magazine. Produced by Bill Maher, it uses CNN journalist Fareed Zakaria as a consultant, and covers topics such as political assassinations, young weapons manufacturers, and child suicide bombers using an immersionist style of documentary filmmaking. It aired on HBO in April 2013. Rolling Stone wrote that the show \"feels a little like your buddy from the bar just happened to be wandering through eastern Afghanistan with a camera crew.\"", "popularity": 1.473895, "original_name": "VICE", "backdrop_path": "/qNc0bT76vg99ThLZzEMgHAXyzHR.jpg", "vote_average": 7.5, "vote_count": 7, "first_air_date": "2013-04-05", "genre_ids": [10763, 99], "id": 48552, "original_language": "en"}, {"origin_country": ["JP"], "poster_path": "/mrn2t9p4bZUd00qV5jhHB7uRyzp.jpg", "name": "Yona of the Dawn", "overview": "The legend of the Four Dragons and the origin of the land has been passed down for generations in the land of Kouka. Currently, Hiryuu Palace has no one else next in line for the throne other than the fifteen year old princess, Yona, who had been raised with care.\n\nFinally, the night of her sixteenth birthday arrives. She expects it to be a wonderful day spent with her peace-loving father, Il, her servant and friend Hak, and her cousin Soo-won, who she had feelings for... However... That night, Yona goes to visit her father to tell him how she really feels, because he opposes to her getting married to Soo-won. However, when she gets to her room, she encounters a shocking truth. The destinies of Yona and the Four Dragons entwine in this period drama fantasy romance!", "popularity": 1.386194, "original_name": "\u6681\u306e\u30e8\u30ca", "backdrop_path": "/vPBp04X2BGdbyQNTAtCPPImKpZJ.jpg", "vote_average": 6.0, "vote_count": 3, "first_air_date": "2014-10-07", "genre_ids": [12, 16, 35, 18, 14, 10749], "id": 61461, "original_language": "es"}]}}