{"total_results": 249431, "total_pages": 12472, "page": 2, "results": [{"poster_path": "/l3Lb8UWmqfXY9kr9YhJXvnTvf4I.jpg", "title": "The Hobbit: The Battle of the Five Armies", "overview": "Mere seconds after the events of Desolation, Bilbo and Company continue to claim a mountain of treasure that was guarded long ago: But with Gandalf the Grey also facing some formidable foes of his own, the Hobbit is outmatched when the brutal army of orcs led by Azog the Defiler returns. But with other armies such as the elves and the men of Lake-Town, which are unsure to be trusted, are put to the ultimate test when Smaug's wrath, Azog's sheer strength, and Sauron's force of complete ends attack. All in all, the trusted armies have two choices: unite or die. But even worse, Bilbo gets put on a knife edge and finds himself fighting with Hobbit warfare with all of his might for his dwarf-friends, as the hope for Middle-Earth is all put in Bilbo's hands. The one \"precious\" thing to end it all.", "release_date": "2014-12-17", "popularity": 12.476446, "original_title": "The Hobbit: The Battle of the Five Armies", "backdrop_path": "/qhH3GyIfAnGv1pjdV3mw03qAilg.jpg", "vote_count": 2071, "video": false, "adult": false, "vote_average": 7.2, "genre_ids": [12, 14], "id": 122917, "original_language": "en"}, {"poster_path": "/cWERd8rgbw7bCMZlwP207HUXxym.jpg", "title": "The Hunger Games: Mockingjay - Part 1", "overview": "Katniss Everdeen reluctantly becomes the symbol of a mass rebellion against the autocratic Capitol.", "release_date": "2014-11-20", "popularity": 10.354655, "original_title": "The Hunger Games: Mockingjay - Part 1", "backdrop_path": "/fUn5I5f4069vwGFEEvA3HXt9xPP.jpg", "vote_count": 2034, "video": false, "adult": false, "vote_average": 7.0, "genre_ids": [878, 12, 53], "id": 131631, "original_language": "en"}, {"poster_path": "/z3nGs7UED9XlqUkgWeT4jQ80m1N.jpg", "title": "Southpaw", "overview": "Billy \"The Great\" Hope, the reigning junior middleweight boxing champion, has an impressive career, a loving wife and daughter, and a lavish lifestyle. However, when tragedy strikes, Billy hits rock bottom, losing his family, his house and his manager. He soon finds an unlikely savior in Tick Willis, a former fighter who trains the city's toughest amateur boxers. With his future on the line, Hope fights to reclaim the trust of those he loves the most.", "release_date": "2015-07-24", "popularity": 14.696086, "original_title": "Southpaw", "backdrop_path": "/2vFH3ntJbBC7QCwB0nRJGLx0oPU.jpg", "vote_count": 507, "video": false, "adult": false, "vote_average": 7.2, "genre_ids": [28, 18, 53], "id": 307081, "original_language": "en"}, {"poster_path": "/3zQvuSAUdC3mrx9vnSEpkFX0968.jpg", "title": "Big Hero 6", "overview": "The special bond that develops between plus-sized inflatable robot Baymax, and prodigy Hiro Hamada, who team up with a group of friends to form a band of high-tech heroes.", "release_date": "2014-11-07", "popularity": 11.890346, "original_title": "Big Hero 6", "backdrop_path": "/2BXd0t9JdVqCp9sKf6kzMkr7QjB.jpg", "vote_count": 2556, "video": false, "adult": false, "vote_average": 7.9, "genre_ids": [28, 12, 16, 35, 10751], "id": 177572, "original_language": "en"}, {"poster_path": "/8x7ej0LnHdKUqilNNJXYOeyB6L9.jpg", "title": "Kingsman: The Secret Service", "overview": "Kingsman: The Secret Service tells the story of a super-secret spy organization that recruits an unrefined but promising street kid into the agency's ultra-competitive training program just as a global threat emerges from a twisted tech genius.", "release_date": "2014-12-13", "popularity": 11.781164, "original_title": "Kingsman: The Secret Service", "backdrop_path": "/7LMp3YY6WrJEExwKEyVaQnRlC76.jpg", "vote_count": 2347, "video": false, "adult": false, "vote_average": 7.7, "genre_ids": [28, 12, 35, 80], "id": 207703, "original_language": "en"}, {"poster_path": "/y31QB9kn3XSudA15tV7UWQ9XLuW.jpg", "title": "Guardians of the Galaxy", "overview": "Light years from Earth, 26 years after being abducted, Peter Quill finds himself the prime target of a manhunt after discovering an orb wanted by Ronan the Accuser.", "release_date": "2014-08-01", "popularity": 14.29351, "original_title": "Guardians of the Galaxy", "backdrop_path": "/bHarw8xrmQeqf3t8HpuMY7zoK4x.jpg", "vote_count": 3650, "video": false, "adult": false, "vote_average": 8.1, "genre_ids": [878, 14, 12], "id": 118340, "original_language": "en"}, {"poster_path": "/coss7RgL0NH6g4fC2s5atvf3dFO.jpg", "title": "The Maze Runner", "overview": "Set in a post-apocalyptic world, young Thomas is deposited in a community of boys after his memory is erased, soon learning they're all trapped in a maze that will require him to join forces with fellow \"runners\" for a shot at escape.", "release_date": "2014-09-19", "popularity": 9.151163, "original_title": "The Maze Runner", "backdrop_path": "/yTbPPmLAn7DiiM0sPYfZduoAjB.jpg", "vote_count": 2160, "video": false, "adult": false, "vote_average": 7.1, "genre_ids": [28, 9648, 878, 53], "id": 198663, "original_language": "en"}, {"poster_path": "/aMEsvTUklw0uZ3gk3Q6lAj6302a.jpg", "title": "Jupiter Ascending", "overview": "In a universe where human genetic material is the most precious commodity, an impoverished young Earth woman becomes the key to strategic maneuvers and internal strife within a powerful dynasty\u2026", "release_date": "2015-02-05", "popularity": 12.511408, "original_title": "Jupiter Ascending", "backdrop_path": "/4liSXBZZdURI0c1Id1zLJo6Z3Gu.jpg", "vote_count": 1268, "video": false, "adult": false, "vote_average": 5.4, "genre_ids": [878, 14, 28, 12], "id": 76757, "original_language": "en"}, {"poster_path": "/2i0JH5WqYFqki7WDhUW56Sg0obh.jpg", "title": "Cinderella", "overview": "When her father unexpectedly passes away, young Ella finds herself at the mercy of her cruel stepmother and her daughters. Never one to give up hope, Ella's fortunes begin to change after meeting a dashing stranger in the woods.", "release_date": "2015-03-13", "popularity": 7.672025, "original_title": "Cinderella", "backdrop_path": "/aUYcExsGuRaw7PLGmAmXubt1dfG.jpg", "vote_count": 790, "video": false, "adult": false, "vote_average": 7.0, "genre_ids": [10749, 14, 10751, 18], "id": 150689, "original_language": "en"}, {"poster_path": "/5vHssUeVe25bMrof1HyaPyWgaP.jpg", "title": "John Wick", "overview": "After the sudden death of his beloved wife, John Wick receives one last gift from her, a beagle puppy named Daisy, and a note imploring him not to forget how to love. But John's mourning is interrupted when his 1969 Boss Mustang catches the eye of sadistic thug Iosef Tarasov who breaks into his house and steals it, beating John unconscious in the process. Unwittingly, he has just reawakened one of the most brutal assassins the underworld has ever known.", "release_date": "2014-10-24", "popularity": 11.700414, "original_title": "John Wick", "backdrop_path": "/mFb0ygcue4ITixDkdr7wm1Tdarx.jpg", "vote_count": 1392, "video": false, "adult": false, "vote_average": 7.2, "genre_ids": [28, 53], "id": 245891, "original_language": "en"}, {"poster_path": "/ub8d4LNtfwfibUclk89KDNQJx5k.jpg", "title": "Eddie Izzard: Glorious", "overview": "Eddie Izzard's routine has a loose trajectory from the beginning of the Old Testament and the creation of the world in seven days to Revelations. Along the way, we learn of the search for a career, bad giraffes, Prince Philip's gaffes, toilets in French campsites, the mysteries of hopscotch, becoming one's Dad and tranny bashing.", "release_date": "1997-11-17", "popularity": 9.217501, "original_title": "Eddie Izzard: Glorious", "backdrop_path": "/2XHkh7xLqH168KRqMwDuiTmuyQi.jpg", "vote_count": 6, "video": false, "adult": false, "vote_average": 6.8, "genre_ids": [35], "id": 13590, "original_language": "en"}, {"poster_path": "/2USk7mhiCXRkU9NzttXCzOjg2iV.jpg", "title": "Trainwreck", "overview": "Having thought that monogamy was never possible, a commitment-phobic career woman may have to face her fears when she meets a good guy.", "release_date": "2015-07-17", "popularity": 11.575958, "original_title": "Trainwreck", "backdrop_path": "/aeUT193K0ZxrVwK3zfL2EjoyQWG.jpg", "vote_count": 259, "video": false, "adult": false, "vote_average": 6.4, "genre_ids": [10749, 35], "id": 271718, "original_language": "en"}, {"poster_path": "/dCgm7efXDmiABSdWDHBDBx2jwmn.jpg", "title": "Furious 7", "overview": "Deckard Shaw seeks revenge against Dominic Toretto and his family for his comatose brother.", "release_date": "2015-04-03", "popularity": 9.456297, "original_title": "Furious 7", "backdrop_path": "/ypyeMfKydpyuuTMdp36rMlkGDUL.jpg", "vote_count": 1825, "video": false, "adult": false, "vote_average": 7.5, "genre_ids": [28, 12, 80, 10749, 53], "id": 168259, "original_language": "en"}, {"poster_path": "/pCj8zem1NDAODdtvha9WFEB6iWR.jpg", "title": "Crimson Peak", "overview": "In the aftermath of a family tragedy, an aspiring author is torn between love for her childhood friend and the temptation of a mysterious outsider. Trying to escape the ghosts of her past, she is swept away to a house that breathes, bleeds\u2026 and remembers.", "release_date": "2015-10-13", "popularity": 11.366382, "original_title": "Crimson Peak", "backdrop_path": "/t8wLhfVbfCHbirEgDPQhiuLcFGp.jpg", "vote_count": 146, "video": false, "adult": false, "vote_average": 6.1, "genre_ids": [27, 10749], "id": 201085, "original_language": "en"}, {"poster_path": "/wbOhUNeHAwzflkAjTRFp62rclhP.jpg", "title": "Necroland", "overview": "In an instant, 80% of the worlds population has turned into rage humans and the weather has gone out of control. Inside all of this chaos, the remaining survivors attempt to unravel the answers to this convoluted mystery.", "release_date": "2015-10-30", "popularity": 10.290405, "original_title": "Necroland", "backdrop_path": null, "vote_count": 1, "video": false, "adult": false, "vote_average": 9.0, "genre_ids": [28, 18, 27, 9648, 878], "id": 255561, "original_language": "en"}, {"poster_path": "/fukWJhLISH7f6cnYSdgb0JrSP2Q.jpg", "title": "Nightcrawler", "overview": "A driven young man (Gyllenhaal) stumbles upon the underground world of L.A. freelance crime journalism.  When Lou Bloom, desperate for work, muscles into the world of L.A. crime journalism, he blurs the line between observer and participant to become the star of his own story. Aiding him in his effort is Nina, a TV-news veteran.", "release_date": "2014-10-31", "popularity": 10.197981, "original_title": "Nightcrawler", "backdrop_path": "/ts4j3zYaPzdUVF3ijBeBdGVDWjX.jpg", "vote_count": 1323, "video": false, "adult": false, "vote_average": 7.6, "genre_ids": [80, 18, 53], "id": 242582, "original_language": "en"}, {"poster_path": "/A7HtCxFe7Ms8H7e7o2zawppbuDT.jpg", "title": "Ted 2", "overview": "Newlywed couple Ted and Tami-Lynn want to have a baby, but in order to qualify to be a parent, Ted will have to prove he's a person in a court of law.", "release_date": "2015-06-26", "popularity": 8.016629, "original_title": "Ted 2", "backdrop_path": "/nkwoiSVJLeK0NI8kTqioBna61bm.jpg", "vote_count": 826, "video": false, "adult": false, "vote_average": 6.8, "genre_ids": [35], "id": 214756, "original_language": "en"}, {"poster_path": "/fYzpM9GmpBlIC893fNjoWCwE24H.jpg", "title": "Star Wars: Episode VII - The Force Awakens", "overview": "A continuation of the saga created by George Lucas, set thirty years after Star Wars: Episode VI \u2013 Return of the Jedi.", "release_date": "2015-12-18", "popularity": 9.736258, "original_title": "Star Wars: Episode VII - The Force Awakens", "backdrop_path": "/njv65RTipNSTozFLuF85jL0bcQe.jpg", "vote_count": 88, "video": false, "adult": false, "vote_average": 8.0, "genre_ids": [28, 12, 878, 14], "id": 140607, "original_language": "en"}, {"poster_path": "/xxOKDTQbQo7h1h7TyrQIW7u8KcJ.jpg", "title": "The Internship", "overview": "Two recently laid-off men in their 40s try to make it as interns at a successful Internet company where their managers are in their 20s.", "release_date": "2013-06-07", "popularity": 9.615598, "original_title": "The Internship", "backdrop_path": "/dmnaqPsvJuBSoDtbd8BkDZzPGzi.jpg", "vote_count": 827, "video": false, "adult": false, "vote_average": 6.1, "genre_ids": [35], "id": 116741, "original_language": "en"}, {"poster_path": "/fIHF63oznk2PXlYM6pPfhnOB3SD.jpg", "title": "Fury", "overview": "Last months of World War II in April 1945. As the Allies make their final push in the European Theater, a battle-hardened U.S. Army sergeant in the 2nd Armored Division named Wardaddy commands a Sherman tank called \"Fury\" and its five-man crew on a deadly mission behind enemy lines. Outnumbered and outgunned, Wardaddy and his men face overwhelming odds in their heroic attempts to strike at the heart of Nazi Germany.", "release_date": "2014-10-17", "popularity": 8.30153, "original_title": "Fury", "backdrop_path": "/pKawqrtCBMmxarft7o1LbEynys7.jpg", "vote_count": 1608, "video": false, "adult": false, "vote_average": 7.4, "genre_ids": [10752, 18, 28], "id": 228150, "original_language": "en"}]}