{"total_results": 19721, "total_pages": 987, "page": 1, "results": [{"poster_path": "/inVq3FRqcYIRl2la8iZikYYxFNR.jpg", "title": "Deadpool", "overview": "Based upon Marvel Comics\u2019 most unconventional anti-hero, DEADPOOL tells the origin story of former Special Forces operative turned mercenary Wade Wilson, who after being subjected to a rogue experiment that leaves him with accelerated healing powers, adopts the alter ego Deadpool. Armed with his new abilities and a dark, twisted sense of humor, Deadpool hunts down the man who nearly destroyed his life.", "release_date": "2016-02-09", "popularity": 96.310016000000005, "original_title": "Deadpool", "backdrop_path": "/nbIrDhOtUpdD9HKDBRy02a8VhpV.jpg", "vote_count": 1116, "video": false, "adult": false, "vote_average": 7.29, "original_language": "en", "id": 293660, "genre_ids": [28, 12, 35]}, {"poster_path": "/jjBgi2r5cRt36xF6iNUEhzscEcb.jpg", "title": "Jurassic World", "overview": "Twenty-two years after the events of Jurassic Park, Isla Nublar now features a fully functioning dinosaur theme park, Jurassic World, as originally envisioned by John Hammond.", "release_date": "2015-06-09", "popularity": 29.824864000000002, "original_title": "Jurassic World", "backdrop_path": "/dkMD5qlogeRMiEixC4YNPUvax2T.jpg", "vote_count": 3918, "video": false, "adult": false, "vote_average": 6.71, "original_language": "en", "id": 135397, "genre_ids": [28, 12, 878, 53]}, {"poster_path": "/hE24GYddaxB9MVZl1CaiI86M3kp.jpg", "title": "Spectre", "overview": "A cryptic message from Bond\u2019s past sends him on a trail to uncover a sinister organization. While M battles political forces to keep the secret service alive, Bond peels back the layers of deceit to reveal the terrible truth behind SPECTRE.", "release_date": "2015-10-26", "popularity": 27.689767, "original_title": "Spectre", "backdrop_path": "/wVTYlkKPKrljJfugXN7UlLNjtuJ.jpg", "vote_count": 2078, "video": false, "adult": false, "vote_average": 6.29, "original_language": "en", "id": 206647, "genre_ids": [28, 12, 80]}, {"poster_path": "/5aGhaIHYuQbqlHWvWYqMCnj40y2.jpg", "title": "The Martian", "overview": "During a manned mission to Mars, Astronaut Mark Watney is presumed dead after a fierce storm and left behind by his crew. But Watney has survived and finds himself stranded and alone on the hostile planet. With only meager supplies, he must draw upon his ingenuity, wit and spirit to subsist and find a way to signal to Earth that he is alive.", "release_date": "2015-09-30", "popularity": 27.648678, "original_title": "The Martian", "backdrop_path": "/sy3e2e4JwdAtd2oZGA2uUilZe8j.jpg", "vote_count": 2606, "video": false, "adult": false, "vote_average": 7.5800000000000001, "original_language": "en", "id": 286217, "genre_ids": [18, 12, 878]}, {"poster_path": "/kqjL17yufvn9OVLyXYpvtyrFfak.jpg", "title": "Mad Max: Fury Road", "overview": "An apocalyptic story set in the furthest reaches of our planet, in a stark desert landscape where humanity is broken, and most everyone is crazed fighting for the necessities of life. Within this world exist two rebels on the run who just might be able to restore order. There's Max, a man of action and a man of few words, who seeks peace of mind following the loss of his wife and child in the aftermath of the chaos. And Furiosa, a woman of action and a woman who believes her path to survival may be achieved if she can make it across the desert back to her childhood homeland.", "release_date": "2015-05-13", "popularity": 24.890687, "original_title": "Mad Max: Fury Road", "backdrop_path": "/tbhdm8UJAb4ViCTsulYFL3lxMCd.jpg", "vote_count": 3781, "video": false, "adult": false, "vote_average": 7.46, "original_language": "en", "id": 76341, "genre_ids": [878, 53, 28, 12]}, {"poster_path": "/5JU9ytZJyR3zmClGmVm9q4Geqbd.jpg", "title": "Terminator Genisys", "overview": "The year is 2029. John Connor, leader of the resistance continues the war against the machines. At the Los Angeles offensive, John's fears of the unknown future begin to emerge when TECOM spies reveal a new plot by SkyNet that will attack him from both fronts; past and future, and will ultimately change warfare forever.", "release_date": "2015-06-23", "popularity": 21.780246000000002, "original_title": "Terminator Genisys", "backdrop_path": "/bIlYH4l2AyYvEysmS2AOfjO7Dn8.jpg", "vote_count": 1803, "video": false, "adult": false, "vote_average": 6.0800000000000001, "original_language": "en", "id": 87101, "genre_ids": [878, 28, 53, 12]}, {"poster_path": "/oXUWEc5i3wYyFnL1Ycu8ppxxPvs.jpg", "title": "The Revenant", "overview": "In the 1820s, a frontiersman, Hugh Glass, sets out on a path of vengeance against those who left him for dead after a bear mauling.", "release_date": "2015-12-25", "popularity": 20.582401000000001, "original_title": "The Revenant", "backdrop_path": "/uS1SkjVviraGfFNgkDwe7ohTm8B.jpg", "vote_count": 1522, "video": false, "adult": false, "vote_average": 7.2199999999999998, "original_language": "en", "id": 281957, "genre_ids": [37, 18, 12, 53]}, {"poster_path": "/cgxEscv6TQRK6a514FwuJOjcqQ5.jpg", "title": "The 5th Wave", "overview": "16-year-old Cassie Sullivan tries to survive in a world devastated by the waves of an alien invasion that has already decimated the population and knocked mankind back to the Stone Age.", "release_date": "2016-01-14", "popularity": 18.299565000000001, "original_title": "The 5th Wave", "backdrop_path": "/9mNklILambgAb1mUm8912yaSjar.jpg", "vote_count": 258, "video": false, "adult": false, "vote_average": 4.9699999999999998, "original_language": "en", "id": 299687, "genre_ids": [12, 878, 53]}, {"poster_path": "/q0R4crx2SehcEEQEkYObktdeFy.jpg", "title": "Minions", "overview": "Minions Stuart, Kevin and Bob are recruited by Scarlet Overkill, a super-villain who, alongside her inventor husband Herb, hatches a plot to take over the world.", "release_date": "2015-06-17", "popularity": 17.590575999999999, "original_title": "Minions", "backdrop_path": "/uX7LXnsC7bZJZjn048UCOwkPXWJ.jpg", "vote_count": 2233, "video": false, "adult": false, "vote_average": 6.6500000000000004, "original_language": "en", "id": 211672, "genre_ids": [10751, 16, 12, 35]}, {"poster_path": "/xSE4NBFDzqedwa4AIj99r1Z7ljF.jpg", "title": "Creed", "overview": "The former World Heavyweight Champion Rocky Balboa serves as a trainer and mentor to Adonis Johnson, the son of his late friend and former rival Apollo Creed.", "release_date": "2015-11-25", "popularity": 17.557700000000001, "original_title": "Creed", "backdrop_path": "/nF4kmc4gDRQU4OJiJgk6sZtbJbl.jpg", "vote_count": 505, "video": false, "adult": false, "vote_average": 7.2300000000000004, "original_language": "en", "id": 312221, "genre_ids": [18]}, {"poster_path": "/6vzNCyVNPkcITEMKl3oXnWm8QMs.jpg", "title": "Captain America: Civil War", "overview": "Following the events of Age of Ultron, the collective governments of the world pass an act designed to regulate all superhuman activity. This polarizes opinion amongst the Avengers, causing two factions to side with Iron Man or Captain America, which causes an epic battle between former allies.", "release_date": "2016-04-27", "popularity": 16.604109000000001, "original_title": "Captain America: Civil War", "backdrop_path": "/dYqE0LXqK7FmBtb9khXw8QdjKMW.jpg", "vote_count": 5, "video": false, "adult": false, "vote_average": 8.3000000000000007, "original_language": "en", "id": 271110, "genre_ids": [28, 878, 53]}, {"poster_path": "/fYzpM9GmpBlIC893fNjoWCwE24H.jpg", "title": "Star Wars: The Force Awakens", "overview": "Thirty years after defeating the Galactic Empire, Han Solo and his allies face a new threat from the evil Kylo Ren and his army of Stormtroopers.", "release_date": "2015-12-15", "popularity": 16.371700000000001, "original_title": "Star Wars: The Force Awakens", "backdrop_path": "/c2Ax8Rox5g6CneChwy1gmu4UbSb.jpg", "vote_count": 3116, "video": false, "adult": false, "vote_average": 7.7300000000000004, "original_language": "en", "id": 140607, "genre_ids": [28, 12, 878, 14]}, {"poster_path": "/fIHF63oznk2PXlYM6pPfhnOB3SD.jpg", "title": "Fury", "overview": "Last months of World War II in April 1945. As the Allies make their final push in the European Theater, a battle-hardened U.S. Army sergeant in the 2nd Armored Division named Wardaddy commands a Sherman tank called \"Fury\" and its five-man crew on a deadly mission behind enemy lines. Outnumbered and outgunned, Wardaddy and his men face overwhelming odds in their heroic attempts to strike at the heart of Nazi Germany.", "release_date": "2014-10-15", "popularity": 15.800577000000001, "original_title": "Fury", "backdrop_path": "/pKawqrtCBMmxarft7o1LbEynys7.jpg", "vote_count": 1970, "video": false, "adult": false, "vote_average": 7.4699999999999998, "original_language": "en", "id": 228150, "genre_ids": [10752, 18, 28]}, {"poster_path": "/nBNZadXqJSdt05SHLqgT0HuC5Gm.jpg", "title": "Interstellar", "overview": "Interstellar chronicles the adventures of a group of explorers who make use of a newly discovered wormhole to surpass the limitations on human space travel and conquer the vast distances involved in an interstellar voyage.", "release_date": "2014-11-05", "popularity": 15.274595, "original_title": "Interstellar", "backdrop_path": "/xu9zaAevzQ5nnrsXN6JcahLnG4i.jpg", "vote_count": 4438, "video": false, "adult": false, "vote_average": 8.2200000000000006, "original_language": "en", "id": 157336, "genre_ids": [12, 18, 878]}, {"poster_path": "/5TQ6YDmymBpnF005OyoB7ohZps9.jpg", "title": "Captain America: The Winter Soldier", "overview": "After the cataclysmic events in New York with The Avengers, Steve Rogers, aka Captain America is living quietly in Washington, D.C. and trying to adjust to the modern world. But when a S.H.I.E.L.D. colleague comes under attack, Steve becomes embroiled in a web of intrigue that threatens to put the world at risk. Joining forces with the Black Widow, Captain America struggles to expose the ever-widening conspiracy while fighting off professional assassins sent to silence him at every turn. When the full scope of the villainous plot is revealed, Captain America and the Black Widow enlist the help of a new ally, the Falcon. However, they soon find themselves up against an unexpected and formidable enemy\u2014the Winter Soldier.", "release_date": "2014-03-20", "popularity": 14.503481000000001, "original_title": "Captain America: The Winter Soldier", "backdrop_path": "/4qfXT9BtxeFuamR4F49m2mpKQI1.jpg", "vote_count": 2923, "video": false, "adult": false, "vote_average": 7.6699999999999999, "original_language": "en", "id": 100402, "genre_ids": [28, 12, 878]}, {"poster_path": "/cWERd8rgbw7bCMZlwP207HUXxym.jpg", "title": "The Hunger Games: Mockingjay - Part 1", "overview": "Katniss Everdeen reluctantly becomes the symbol of a mass rebellion against the autocratic Capitol.", "release_date": "2014-11-19", "popularity": 14.268026000000001, "original_title": "The Hunger Games: Mockingjay - Part 1", "backdrop_path": "/83nHcz2KcnEpPXY50Ky2VldewJJ.jpg", "vote_count": 2557, "video": false, "adult": false, "vote_average": 6.8399999999999999, "original_language": "en", "id": 131631, "genre_ids": [878, 12, 53]}, {"poster_path": "/dwRHF43p50wLIYAIxrUhLkK3jCI.jpg", "title": "Triple 9", "overview": "A gang of criminals and corrupt cops plan the murder of a police officer in order to pull off their biggest heist yet across town.", "release_date": "2016-02-19", "popularity": 14.185774, "original_title": "Triple 9", "backdrop_path": "/yB5f25CPuTrb6XSbd076kzR9Qz6.jpg", "vote_count": 54, "video": false, "adult": false, "vote_average": 3.79, "original_language": "en", "id": 146198, "genre_ids": [80, 18, 53]}, {"poster_path": "/t5tGykRvvlLBULIPsAJEzGg1ylm.jpg", "title": "Heist", "overview": "A father is without the means to pay for his daughter's medical treatment. As a last resort, he partners with a greedy co-worker to rob a casino. When things go awry they're forced to hijack a city bus.", "release_date": "2015-11-13", "popularity": 13.973595, "original_title": "Heist", "backdrop_path": "/cBlnfR0n1GA2vPoUQNcbL9pb3VW.jpg", "vote_count": 98, "video": false, "adult": false, "vote_average": 5.6399999999999997, "original_language": "en", "id": 336004, "genre_ids": [28, 53]}, {"poster_path": "/rtQmqGnO0q1IdwdjFL6WdunQU6i.jpg", "title": "The Maze Runner", "overview": "Set in a post-apocalyptic world, young Thomas is deposited in a community of boys after his memory is erased, soon learning they're all trapped in a maze that will require him to join forces with fellow \"runners\" for a shot at escape.", "release_date": "2014-09-10", "popularity": 13.78173, "original_title": "The Maze Runner", "backdrop_path": "/yTbPPmLAn7DiiM0sPYfZduoAjB.jpg", "vote_count": 2612, "video": false, "adult": false, "vote_average": 7, "original_language": "en", "id": 198663, "genre_ids": [28, 9648, 878, 53]}, {"poster_path": "/D6e8RJf2qUstnfkTslTXNTUAlT.jpg", "title": "Ant-Man", "overview": "Armed with the astonishing ability to shrink in scale but increase in strength, con-man Scott Lang must embrace his inner-hero and help his mentor, Dr. Hank Pym, protect the secret behind his spectacular Ant-Man suit from a new generation of towering threats. Against seemingly insurmountable obstacles, Pym and Lang must plan and pull off a heist that will save the world.", "release_date": "2015-07-14", "popularity": 13.727042000000001, "original_title": "Ant-Man", "backdrop_path": "/kvXLZqY0Ngl1XSw7EaMQO0C1CCj.jpg", "vote_count": 2624, "video": false, "adult": false, "vote_average": 6.8700000000000001, "original_language": "en", "id": 102899, "genre_ids": [878, 28, 12]}]}